%YAML 1.1
%TAG !u! tag:unity3d.com,2011:
--- !u!74 &7400000
AnimationClip:
  m_ObjectHideFlags: 0
  m_CorrespondingSourceObject: {fileID: 0}
  m_PrefabInternal: {fileID: 0}
  m_Name: Anim Red Planet
  serializedVersion: 6
  m_Legacy: 0
  m_Compressed: 0
  m_UseHighQualityCurve: 1
  m_RotationCurves: []
  m_CompressedRotationCurves: []
  m_EulerCurves: []
  m_PositionCurves: []
  m_ScaleCurves: []
  m_FloatCurves: []
  m_PPtrCurves:
  - curve:
    - time: 0
      value: {fileID: 21300000, guid: cfbcc25288f9e894bbdf1eac83e5cc20, type: 3}
    - time: 0.083333336
      value: {fileID: 21300000, guid: c7326fa0c85cc02449d58e29a75e84f4, type: 3}
    - time: 0.16666667
      value: {fileID: 21300000, guid: 88982d80f1d4caf4bbe3818cdd4b8f9b, type: 3}
    - time: 0.25
      value: {fileID: 21300000, guid: 0a8f5e8ee8466024d9d71689dbd90c2d, type: 3}
    - time: 0.33333334
      value: {fileID: 21300000, guid: 4efe08de2e4d2e4499fd16bc1b25bd2f, type: 3}
    - time: 0.41666666
      value: {fileID: 21300000, guid: 86dcdf74179706d449b2ddc043ce6e39, type: 3}
    - time: 0.5
      value: {fileID: 21300000, guid: c06e7e05a4eb7cd418cf5069e1b04255, type: 3}
    - time: 0.5833333
      value: {fileID: 21300000, guid: 895dbbea5d6550e44a3d666f73bff015, type: 3}
    - time: 0.6666667
      value: {fileID: 21300000, guid: 28eb287ee946e4f4ba2ad67b256c952a, type: 3}
    - time: 0.75
      value: {fileID: 21300000, guid: 4635a330b7640fb499ecd42c213b7b39, type: 3}
    - time: 0.8333333
      value: {fileID: 21300000, guid: 33b682c899866694e95b870f05255e02, type: 3}
    - time: 0.9166667
      value: {fileID: 21300000, guid: e80b911a059173f49bc31f8f5969838d, type: 3}
    - time: 1
      value: {fileID: 21300000, guid: 9d6bd53d2201d4c469c02424f98be98f, type: 3}
    - time: 1.0833334
      value: {fileID: 21300000, guid: 7a4d81178289dc345805cc48525a58f7, type: 3}
    - time: 1.1666666
      value: {fileID: 21300000, guid: f87ab0a936c4478439c7548f4e347d32, type: 3}
    - time: 1.25
      value: {fileID: 21300000, guid: 0a69320ffa6698f46b0acdd1965f121e, type: 3}
    - time: 1.3333334
      value: {fileID: 21300000, guid: fdf520deb473fd04b98183c88a5167c6, type: 3}
    - time: 1.4166666
      value: {fileID: 21300000, guid: ae457c498164f6f459d976e1280deade, type: 3}
    - time: 1.5
      value: {fileID: 21300000, guid: 96cb2c33645c2c94d8e37f14e7833875, type: 3}
    - time: 1.5833334
      value: {fileID: 21300000, guid: ceaa49e0857935a4bbf0390443cd0a27, type: 3}
    - time: 1.6666666
      value: {fileID: 21300000, guid: f2a3dfd1cde822346a45fee8f7e6dfaf, type: 3}
    - time: 1.75
      value: {fileID: 21300000, guid: 79f41194c95152b4c8e329e087aff881, type: 3}
    - time: 1.8333334
      value: {fileID: 21300000, guid: bd4d5b6822b600c458eda60944d8f7c6, type: 3}
    - time: 1.9166666
      value: {fileID: 21300000, guid: 735b84773acdd574e88b008cf8987771, type: 3}
    - time: 2
      value: {fileID: 21300000, guid: 3432d3ff3bc5a0247b1a370671b12f86, type: 3}
    - time: 2.0833333
      value: {fileID: 21300000, guid: b67a3d9df3999c843a3a8f1ab68116e4, type: 3}
    - time: 2.1666667
      value: {fileID: 21300000, guid: 9ab1ea336d5a9b743b26eb4c4a2a5572, type: 3}
    - time: 2.25
      value: {fileID: 21300000, guid: 6711cb18c0aaba741af3633835bf906e, type: 3}
    - time: 2.3333333
      value: {fileID: 21300000, guid: 54fa29a7e52c69148a1838f28ebcbd91, type: 3}
    - time: 2.4166667
      value: {fileID: 21300000, guid: 7f59a21a1c9d93c4aab2e990f6a26c83, type: 3}
    - time: 2.5
      value: {fileID: 21300000, guid: 1b231551cb2b7504f96aa8426190a9a2, type: 3}
    - time: 2.5833333
      value: {fileID: 21300000, guid: b98f5056f0acb4d48b3a6ee65ff245a1, type: 3}
    - time: 2.6666667
      value: {fileID: 21300000, guid: fae942600269f724aafe3baa5f1f5d7e, type: 3}
    - time: 2.75
      value: {fileID: 21300000, guid: d8e92bb57ad472048a521877ea69d231, type: 3}
    - time: 2.8333333
      value: {fileID: 21300000, guid: 758b389e4c34b574f99f249b6a21a90d, type: 3}
    - time: 2.9166667
      value: {fileID: 21300000, guid: fb673d03b498cba4ab62a01b16b5780a, type: 3}
    - time: 3
      value: {fileID: 21300000, guid: 842da19c5638e49409501e34fc815573, type: 3}
    - time: 3.0833333
      value: {fileID: 21300000, guid: c08d8ef90c017744dbc6ac272008fe4f, type: 3}
    - time: 3.1666667
      value: {fileID: 21300000, guid: 17a0ff158cf56594b94d57df79c38a9f, type: 3}
    - time: 3.25
      value: {fileID: 21300000, guid: 51f6362be9eec144589ffeca3d4bc54a, type: 3}
    - time: 3.3333333
      value: {fileID: 21300000, guid: 2fce0b4f97343ac4e9bdbeb596e21d02, type: 3}
    - time: 3.4166667
      value: {fileID: 21300000, guid: 6e1c021aeaee38642bc46241fc0ab881, type: 3}
    - time: 3.5
      value: {fileID: 21300000, guid: 9df80cb516d465849abfc2bbc02170f7, type: 3}
    - time: 3.5833333
      value: {fileID: 21300000, guid: 87e5d91d1ae0d0b49b42a020cc0f18f7, type: 3}
    - time: 3.6666667
      value: {fileID: 21300000, guid: 70d536d37220ace469ec5115ad8f6497, type: 3}
    - time: 3.75
      value: {fileID: 21300000, guid: 6473613b2f92e1445906849ff2117215, type: 3}
    - time: 3.8333333
      value: {fileID: 21300000, guid: 32cc9fc8decff4e4e914da07e89b8a0d, type: 3}
    - time: 3.9166667
      value: {fileID: 21300000, guid: 368b5505628d0f540ad1e115da5155b8, type: 3}
    - time: 4
      value: {fileID: 21300000, guid: 8a84b4159cb8ddd44984c5684d4a27c9, type: 3}
    - time: 4.0833335
      value: {fileID: 21300000, guid: 7729821f90a857d469081a95116eb570, type: 3}
    - time: 4.1666665
      value: {fileID: 21300000, guid: 09aecec4de4031c4caede95ffd622448, type: 3}
    - time: 4.25
      value: {fileID: 21300000, guid: bda9255cc0baacf4b877e7345787312c, type: 3}
    - time: 4.3333335
      value: {fileID: 21300000, guid: b3923505a1c597543acbedd4c5326267, type: 3}
    - time: 4.4166665
      value: {fileID: 21300000, guid: 18ff772d6d19ccf49b20fcdcde1e1164, type: 3}
    - time: 4.5
      value: {fileID: 21300000, guid: 1320dea0c7e8a6b4cbb517958b7dcd7a, type: 3}
    - time: 4.5833335
      value: {fileID: 21300000, guid: 09c209d7bffc6c44597133e55c890d38, type: 3}
    - time: 4.6666665
      value: {fileID: 21300000, guid: c8e88d2a368fd6749a7e01349414c04c, type: 3}
    - time: 4.75
      value: {fileID: 21300000, guid: 0d883a5c8a2485b4eb053366493965dd, type: 3}
    - time: 4.8333335
      value: {fileID: 21300000, guid: 0a4211835569f2940822859a1c78e138, type: 3}
    - time: 4.9166665
      value: {fileID: 21300000, guid: 1fe877249b1980c4c91d35588b2463fa, type: 3}
    - time: 5
      value: {fileID: 21300000, guid: 0b0a867565b8ca4468d9c854c5bf6331, type: 3}
    - time: 5.0833335
      value: {fileID: 21300000, guid: 7fb2c77ee8a59874296d4bf78aba298f, type: 3}
    - time: 5.1666665
      value: {fileID: 21300000, guid: 53a7ea9f978060949a033a6e402759ff, type: 3}
    - time: 5.25
      value: {fileID: 21300000, guid: 222267264e4dfc246b77cbf968c42881, type: 3}
    - time: 5.3333335
      value: {fileID: 21300000, guid: 137a46ba7783b964ba325d1c086e8645, type: 3}
    - time: 5.4166665
      value: {fileID: 21300000, guid: c568e1d2d3e6a4042b6463474dba23cf, type: 3}
    - time: 5.5
      value: {fileID: 21300000, guid: 7505077794f5a61479559a92f586fba7, type: 3}
    - time: 5.5833335
      value: {fileID: 21300000, guid: 3a199558088c2e84f843596bd2eab721, type: 3}
    - time: 5.6666665
      value: {fileID: 21300000, guid: 8adf5894b78ad714e842a2962ab9b26a, type: 3}
    - time: 5.75
      value: {fileID: 21300000, guid: 37be9b1df23063d4888aaaa9d65f6a9c, type: 3}
    - time: 5.8333335
      value: {fileID: 21300000, guid: 657548725cc41394e85f80b06199678c, type: 3}
    - time: 5.9166665
      value: {fileID: 21300000, guid: cd808f879f2133f4bacc019e2ab9b3cc, type: 3}
    - time: 6
      value: {fileID: 21300000, guid: 4d50aa2cc8979d24ba1d2dd8f704ebfe, type: 3}
    - time: 6.0833335
      value: {fileID: 21300000, guid: 9a61836f2be7aa7409587135558e809b, type: 3}
    - time: 6.1666665
      value: {fileID: 21300000, guid: 4b8de594c408f97468e92ee13fdf1300, type: 3}
    - time: 6.25
      value: {fileID: 21300000, guid: b2aedf49f80b4e741b92f3a2cc41993b, type: 3}
    - time: 6.3333335
      value: {fileID: 21300000, guid: 4a15c0e1d4007284d92e4a9b06f0a8d4, type: 3}
    - time: 6.4166665
      value: {fileID: 21300000, guid: 0041d5c56142b0d498c74120d6ed4ea5, type: 3}
    - time: 6.5
      value: {fileID: 21300000, guid: a40ce63dd78284d43841c4a2d01d6638, type: 3}
    - time: 6.5833335
      value: {fileID: 21300000, guid: dafe0de678c9a5a478966a68ca84d57a, type: 3}
    - time: 6.6666665
      value: {fileID: 21300000, guid: 9c51e56e3b4e3d740b21cb5be4d0c050, type: 3}
    - time: 6.75
      value: {fileID: 21300000, guid: 5ef03806f728af94dbd9542f03582c2a, type: 3}
    - time: 6.8333335
      value: {fileID: 21300000, guid: a39cf646a9f58684d9ed3e1779993342, type: 3}
    - time: 6.9166665
      value: {fileID: 21300000, guid: 07323b71120534d4f8519a0c3016b8e2, type: 3}
    - time: 7
      value: {fileID: 21300000, guid: b05993455987e8144a3157216f182174, type: 3}
    - time: 7.0833335
      value: {fileID: 21300000, guid: 2ba331e078b219b4c80d96d549ec5cfd, type: 3}
    - time: 7.1666665
      value: {fileID: 21300000, guid: 6003761f75395f54590de4efdc51035c, type: 3}
    - time: 7.25
      value: {fileID: 21300000, guid: 8aef27926dcb0a24ea14dd3ed65c9abc, type: 3}
    - time: 7.3333335
      value: {fileID: 21300000, guid: 21eca5e335d9e7b4aae57e93e9ead6bf, type: 3}
    - time: 7.4166665
      value: {fileID: 21300000, guid: 24d520b6195e005419883fefce282e6e, type: 3}
    - time: 7.5
      value: {fileID: 21300000, guid: 9cae1c8337cfcb24badb681f65064226, type: 3}
    - time: 7.5833335
      value: {fileID: 21300000, guid: 6053f44e87bf76849ba4ef07d4edc141, type: 3}
    - time: 7.6666665
      value: {fileID: 21300000, guid: b5db7b63dba01ce4a9def27e8be9331b, type: 3}
    - time: 7.75
      value: {fileID: 21300000, guid: f5595fc5a844efd489630e25e0476a73, type: 3}
    - time: 7.8333335
      value: {fileID: 21300000, guid: ad943585e6ce24a46b97c9d2ee0694d2, type: 3}
    - time: 7.9166665
      value: {fileID: 21300000, guid: c8693e514c347f242ae57b69b59325c5, type: 3}
    - time: 8
      value: {fileID: 21300000, guid: 17ef237fd80ff904ab5fa9b5f096eb15, type: 3}
    - time: 8.083333
      value: {fileID: 21300000, guid: 03a6fed322d9aa64884bea547ef004bd, type: 3}
    - time: 8.166667
      value: {fileID: 21300000, guid: 93177fd7efb80f9498741cf594ff8448, type: 3}
    - time: 8.25
      value: {fileID: 21300000, guid: 7118320838bc5204e8d1f79cb014822b, type: 3}
    - time: 8.333333
      value: {fileID: 21300000, guid: 00532513445dd3c4ab3e6b7fda80962e, type: 3}
    - time: 8.416667
      value: {fileID: 21300000, guid: f6a7df925c688a643b6974b8e322f9f9, type: 3}
    - time: 8.5
      value: {fileID: 21300000, guid: d2fcf5be0e0570746b75c1d84e05fdb0, type: 3}
    - time: 8.583333
      value: {fileID: 21300000, guid: 48efd313a5f204b42b49ef949ca472ba, type: 3}
    - time: 8.666667
      value: {fileID: 21300000, guid: f2b944fbbfd1989428f9a4b47a623f82, type: 3}
    - time: 8.75
      value: {fileID: 21300000, guid: 9b0712938b0f7a1468fe4eadd2336b68, type: 3}
    - time: 8.833333
      value: {fileID: 21300000, guid: 328416c4fa1e8524296664d175d5bdf5, type: 3}
    - time: 8.916667
      value: {fileID: 21300000, guid: 1f83f90f0478c524d9b659fa4b35718e, type: 3}
    - time: 9
      value: {fileID: 21300000, guid: daedd61791d8ffa478aed6371db3215e, type: 3}
    - time: 9.083333
      value: {fileID: 21300000, guid: e84717e4ee719e74bba8dec6eb78aeac, type: 3}
    - time: 9.166667
      value: {fileID: 21300000, guid: b89fad61851cb22479b89f9002fa1301, type: 3}
    - time: 9.25
      value: {fileID: 21300000, guid: 70ffb51fd6177744181e6180068759f2, type: 3}
    - time: 9.333333
      value: {fileID: 21300000, guid: e3aea5c7db09e0849b20be1cddd64f78, type: 3}
    - time: 9.416667
      value: {fileID: 21300000, guid: 9271c369533a2724eafa35d8712179b6, type: 3}
    - time: 9.5
      value: {fileID: 21300000, guid: e2fa1307adabf154890562fa63dc28c5, type: 3}
    - time: 9.583333
      value: {fileID: 21300000, guid: 50de051039d3a6b42a41d936b331f89d, type: 3}
    - time: 9.666667
      value: {fileID: 21300000, guid: 7f4f454200c287f45beab6d85c0a39a5, type: 3}
    - time: 9.75
      value: {fileID: 21300000, guid: 98f0125a45f548c41a6c9094b56863c1, type: 3}
    - time: 9.833333
      value: {fileID: 21300000, guid: 189fa7c8823a5884db7a85ef0f74326c, type: 3}
    - time: 9.916667
      value: {fileID: 21300000, guid: 33f40a8b0834f354b89c34f9183ae1a0, type: 3}
    - time: 10
      value: {fileID: 21300000, guid: 6d3453c6a54470645acc37572d891283, type: 3}
    - time: 10.083333
      value: {fileID: 21300000, guid: dc54dc09e2235064094b881a8e3ecdd6, type: 3}
    - time: 10.166667
      value: {fileID: 21300000, guid: e43d3431943d31c4abb398832cf76278, type: 3}
    - time: 10.25
      value: {fileID: 21300000, guid: c210f84204f59c840b3ff9c22b27cd72, type: 3}
    - time: 10.333333
      value: {fileID: 21300000, guid: 6d99b98d37a5a214fac844feef2ffe04, type: 3}
    - time: 10.416667
      value: {fileID: 21300000, guid: 32623a53303c19f4ebe02327bf484d1e, type: 3}
    - time: 10.5
      value: {fileID: 21300000, guid: b160cff36d4e13d4ca55b970b429a156, type: 3}
    - time: 10.583333
      value: {fileID: 21300000, guid: 35e56ab11eb61c849a4543c234da19f1, type: 3}
    - time: 10.666667
      value: {fileID: 21300000, guid: 2b46f0aff19a87a4c8dc4c7075723baa, type: 3}
    - time: 10.75
      value: {fileID: 21300000, guid: b43e112a08305e742820c99752cb98c2, type: 3}
    - time: 10.833333
      value: {fileID: 21300000, guid: 72e96a0219961e14c9725ab99e6df311, type: 3}
    - time: 10.916667
      value: {fileID: 21300000, guid: dea591603c99d3445976560fe4aa186f, type: 3}
    - time: 11
      value: {fileID: 21300000, guid: 57f3497b4ee550148bc31339f2a9a9aa, type: 3}
    - time: 11.083333
      value: {fileID: 21300000, guid: b70d95aa84c4bff4180fa74b5aacbea7, type: 3}
    - time: 11.166667
      value: {fileID: 21300000, guid: 344791adb3a569d44ab924d6dd9f2ca4, type: 3}
    - time: 11.25
      value: {fileID: 21300000, guid: 344448afd81923641a3113e51349f499, type: 3}
    - time: 11.333333
      value: {fileID: 21300000, guid: c76f809c23862a146866099238430c7f, type: 3}
    - time: 11.416667
      value: {fileID: 21300000, guid: fc8a9ea0461980546a9e5d0352936e6e, type: 3}
    - time: 11.5
      value: {fileID: 21300000, guid: 348ad448e0d5dab4a9e5cbf965f86c6d, type: 3}
    - time: 11.583333
      value: {fileID: 21300000, guid: c64e04c29c60668458fb3f26c713b47d, type: 3}
    - time: 11.666667
      value: {fileID: 21300000, guid: 82f6a33466e39a540bac2e730ffff0df, type: 3}
    - time: 11.75
      value: {fileID: 21300000, guid: 80a74474bb85a30459d65648fe030059, type: 3}
    - time: 11.833333
      value: {fileID: 21300000, guid: 524c6afe0a8d4e446b56ab8100df6719, type: 3}
    - time: 11.916667
      value: {fileID: 21300000, guid: 0da7f14d5cf904543b3b756aa0ac30f7, type: 3}
    - time: 12
      value: {fileID: 21300000, guid: 15e3740c1aec8d34585881ab0dfba2ee, type: 3}
    - time: 12.083333
      value: {fileID: 21300000, guid: 1d4508d5d59e9fa4596479bf09252900, type: 3}
    - time: 12.166667
      value: {fileID: 21300000, guid: cdf28328a9335a44180a3f1652ff73ea, type: 3}
    - time: 12.25
      value: {fileID: 21300000, guid: 7c5c3f0ad48d9c6429df9294ae2e5ca9, type: 3}
    - time: 12.333333
      value: {fileID: 21300000, guid: 8df4efabada46b84eab0c3a2d52cf3b1, type: 3}
    - time: 12.416667
      value: {fileID: 21300000, guid: 9b8c0a05d69934b4486188876e45d6b4, type: 3}
    - time: 12.5
      value: {fileID: 21300000, guid: 8fe7a22005aaf034681000e5a328101d, type: 3}
    - time: 12.583333
      value: {fileID: 21300000, guid: 0ef5c786ec108274a8b4e43f1f054fb4, type: 3}
    - time: 12.666667
      value: {fileID: 21300000, guid: 654ddb7572486c74dadecabbc03205be, type: 3}
    - time: 12.75
      value: {fileID: 21300000, guid: aa7b74d0d4f9bf8478eb1daef119155d, type: 3}
    - time: 12.833333
      value: {fileID: 21300000, guid: 26fb764c510b51a458a632ffc410b788, type: 3}
    - time: 12.916667
      value: {fileID: 21300000, guid: f1b056181c82a134b848f34c0864e595, type: 3}
    - time: 13
      value: {fileID: 21300000, guid: 93f178053a897f248811fbe82350ece7, type: 3}
    - time: 13.083333
      value: {fileID: 21300000, guid: 1963b1169289b94479ab5acaff97ed19, type: 3}
    - time: 13.166667
      value: {fileID: 21300000, guid: 41803457f0c76454f8ba65865285598e, type: 3}
    - time: 13.25
      value: {fileID: 21300000, guid: 470d01c4c4d327942bd32f584028e8d9, type: 3}
    - time: 13.333333
      value: {fileID: 21300000, guid: 6c0e267f736524d44844f39925e798ae, type: 3}
    - time: 13.416667
      value: {fileID: 21300000, guid: 04baf21e1f6516142acb468f00de82b8, type: 3}
    - time: 13.5
      value: {fileID: 21300000, guid: 29dbe398c9b245546ac70e10fa7d0580, type: 3}
    - time: 13.583333
      value: {fileID: 21300000, guid: a977fad445934684593d6c2213e36824, type: 3}
    - time: 13.666667
      value: {fileID: 21300000, guid: c4cf2213ba732e646901d6ad678a36d4, type: 3}
    - time: 13.75
      value: {fileID: 21300000, guid: b47c00b971cd5ea48b260afe7070be8f, type: 3}
    - time: 13.833333
      value: {fileID: 21300000, guid: 094f527639fa13f48b344e833d48baf0, type: 3}
    - time: 13.916667
      value: {fileID: 21300000, guid: ffc90d717b7bbc84e8657c0f265f0caa, type: 3}
    - time: 14
      value: {fileID: 21300000, guid: e09a288e691ded642bafb8b8905289f5, type: 3}
    - time: 14.083333
      value: {fileID: 21300000, guid: 053f664b8eba3b94c97af210dea07d4f, type: 3}
    - time: 14.166667
      value: {fileID: 21300000, guid: e9dffa68a5056a74e8a4cd5fee05a5fb, type: 3}
    - time: 14.25
      value: {fileID: 21300000, guid: 8bc43ec50e3746344a950b466c227991, type: 3}
    - time: 14.333333
      value: {fileID: 21300000, guid: 97c9e3c645bc2f447a5455df7b20920f, type: 3}
    - time: 14.416667
      value: {fileID: 21300000, guid: dd89174f8c02b1740b4477e2ceb7c349, type: 3}
    - time: 14.5
      value: {fileID: 21300000, guid: 4ba7313fb95bb814a9e42d2b28f1c8d2, type: 3}
    - time: 14.583333
      value: {fileID: 21300000, guid: f629da4bdb3de154eaf9af810e06bcd7, type: 3}
    - time: 14.666667
      value: {fileID: 21300000, guid: 896af662fd40ec7438baad4fc001d3f1, type: 3}
    - time: 14.75
      value: {fileID: 21300000, guid: a2b6cadfbd8aa02408b0c48ff680bdb3, type: 3}
    - time: 14.833333
      value: {fileID: 21300000, guid: df97945ef355b5c4b8b2e1e96e33d0cb, type: 3}
    - time: 14.916667
      value: {fileID: 21300000, guid: e682195d9ee2e65448a55c1e6eb1129d, type: 3}
    - time: 15
      value: {fileID: 21300000, guid: b7984224ac116d54aa0936adbfcea14a, type: 3}
    - time: 15.083333
      value: {fileID: 21300000, guid: d28ebd0b7c542254eabbc44e61697fd5, type: 3}
    - time: 15.166667
      value: {fileID: 21300000, guid: d8f526fe3e95857428e5ae9cd8893c1e, type: 3}
    - time: 15.25
      value: {fileID: 21300000, guid: f2d4276505e74de45b2b5921baba4fc3, type: 3}
    - time: 15.333333
      value: {fileID: 21300000, guid: bcc8225900314fd4e9c750b39aee4fa9, type: 3}
    - time: 15.416667
      value: {fileID: 21300000, guid: 83b9c30671015ab4ab15a66c0364d8d3, type: 3}
    - time: 15.5
      value: {fileID: 21300000, guid: c86cf46868b1d8345a49d7407a91f160, type: 3}
    - time: 15.583333
      value: {fileID: 21300000, guid: d4116bfafa8adbb4482791d634f952c2, type: 3}
    - time: 15.666667
      value: {fileID: 21300000, guid: 1bb2d6f0c9dd50d459eca435daf58b1e, type: 3}
    - time: 15.75
      value: {fileID: 21300000, guid: b7ad47694e0eb624a9b8641f31cc28a3, type: 3}
    - time: 15.833333
      value: {fileID: 21300000, guid: 3ee01d2e8ce1c8a45b0a428d7e35ec7e, type: 3}
    - time: 15.916667
      value: {fileID: 21300000, guid: b626dbd55b81b304dac0b138f08724a4, type: 3}
    - time: 16
      value: {fileID: 21300000, guid: 91358a14d4893024681eb5cd65063f97, type: 3}
    - time: 16.083334
      value: {fileID: 21300000, guid: 07ef93fb99f43ba43a92c49d729a4f7c, type: 3}
    - time: 16.166666
      value: {fileID: 21300000, guid: 543f5ac60eb59684e890721bc311dce7, type: 3}
    - time: 16.25
      value: {fileID: 21300000, guid: 1e4f9a259a42a7a44b9e6f3309d51781, type: 3}
    - time: 16.333334
      value: {fileID: 21300000, guid: 14c342e872d603741925363e2a9d2550, type: 3}
    - time: 16.416666
      value: {fileID: 21300000, guid: 7b663a92b84f8d440a254623a85206e6, type: 3}
    - time: 16.5
      value: {fileID: 21300000, guid: 4f7567dbbe68708408b92e0bd2025614, type: 3}
    - time: 16.583334
      value: {fileID: 21300000, guid: 91ea5a6a12ef80f43bef10c2765d0d0a, type: 3}
    - time: 16.666666
      value: {fileID: 21300000, guid: 35054369fbe105746bed75a855a70839, type: 3}
    - time: 16.75
      value: {fileID: 21300000, guid: b611a286e08d90f4ea5f70442db7380d, type: 3}
    - time: 16.833334
      value: {fileID: 21300000, guid: 700baf55b8bb36841b978ff32ed7ed38, type: 3}
    - time: 16.916666
      value: {fileID: 21300000, guid: a394669465121d14285b44076d16616d, type: 3}
    - time: 17
      value: {fileID: 21300000, guid: 8970ac6fcd790d24a88b6a3f7d2ab2cf, type: 3}
    - time: 17.083334
      value: {fileID: 21300000, guid: be8b8dd5de0086c4eaa99794bd3777ea, type: 3}
    - time: 17.166666
      value: {fileID: 21300000, guid: b97b070f57f330340804b58fa6f7f73f, type: 3}
    - time: 17.25
      value: {fileID: 21300000, guid: 3c3127a212175944fa81ebc0cfb8da65, type: 3}
    - time: 17.333334
      value: {fileID: 21300000, guid: 37ab39f54b10ac445a9bbf1d952a610a, type: 3}
    - time: 17.416666
      value: {fileID: 21300000, guid: 74cd023c94ed9c840b9a136479fa0190, type: 3}
    - time: 17.5
      value: {fileID: 21300000, guid: 567c85e2b8749d44999750219f225f45, type: 3}
    - time: 17.583334
      value: {fileID: 21300000, guid: 6ef5fa1132148824899906783341ba35, type: 3}
    - time: 17.666666
      value: {fileID: 21300000, guid: 4520f8143f710834aac858a576453bfa, type: 3}
    - time: 17.75
      value: {fileID: 21300000, guid: f442982f398db0144a13dcf2a3d901fd, type: 3}
    - time: 17.833334
      value: {fileID: 21300000, guid: 7ab820727771fd54ebc473b64e39d524, type: 3}
    - time: 17.916666
      value: {fileID: 21300000, guid: ced44d24bffc80a41ac7cf70ac0eaa49, type: 3}
    - time: 18
      value: {fileID: 21300000, guid: 74c79572a2ee06e4dabf7a42a8436ec4, type: 3}
    - time: 18.083334
      value: {fileID: 21300000, guid: f9287d5529380204fbe24fc7ec57c332, type: 3}
    - time: 18.166666
      value: {fileID: 21300000, guid: 4aa185fd2766fb14c8cec5dcce1206a6, type: 3}
    - time: 18.25
      value: {fileID: 21300000, guid: 8fe5de55c2c527443812c55ddeaa6414, type: 3}
    - time: 18.333334
      value: {fileID: 21300000, guid: 218f2ca701761ec4db97f619c158a9cc, type: 3}
    - time: 18.416666
      value: {fileID: 21300000, guid: 6a5b9c167adb4c84381fa32dc0da51ec, type: 3}
    - time: 18.5
      value: {fileID: 21300000, guid: 34b7df93983baf646a15501fca55e820, type: 3}
    - time: 18.583334
      value: {fileID: 21300000, guid: 9f89d9903f447bc48b9d69156c0cb0aa, type: 3}
    - time: 18.666666
      value: {fileID: 21300000, guid: fbbcdd0aebc5e20408573e1ef121d2e3, type: 3}
    - time: 18.75
      value: {fileID: 21300000, guid: f3a7f64dc7981b1458fb363e531e1a9c, type: 3}
    - time: 18.833334
      value: {fileID: 21300000, guid: 43120466357c61b4db1e6ff26a4c29af, type: 3}
    - time: 18.916666
      value: {fileID: 21300000, guid: 4fe22210d4ea7654381cc54bdd4c40ca, type: 3}
    - time: 19
      value: {fileID: 21300000, guid: 4ae2fd97b0c94884a8c3e1a2f9a17a43, type: 3}
    - time: 19.083334
      value: {fileID: 21300000, guid: e8be03e7d7ff5c447a657bfa334d81e3, type: 3}
    - time: 19.166666
      value: {fileID: 21300000, guid: 4aa1f740b6b280a4a8e0e7dcd3bd4a83, type: 3}
    - time: 19.25
      value: {fileID: 21300000, guid: 6a98caaca04b9d3458793a1e8e3e66d8, type: 3}
    - time: 19.333334
      value: {fileID: 21300000, guid: d74e0810ebf07d742a118f1c541e65da, type: 3}
    - time: 19.416666
      value: {fileID: 21300000, guid: e5c85e1a76a298a4d9e3a7f1b716e99e, type: 3}
    - time: 19.5
      value: {fileID: 21300000, guid: e29f38dc0c6b8554e954b82d8b026b1e, type: 3}
    - time: 19.583334
      value: {fileID: 21300000, guid: 516a794cafc2d7d4faafc62a7ecce684, type: 3}
    - time: 19.666666
      value: {fileID: 21300000, guid: a5d2fe7c2fe201a48945397881199761, type: 3}
    - time: 19.75
      value: {fileID: 21300000, guid: 481de0896690e714bbe1475053a44aed, type: 3}
    - time: 19.833334
      value: {fileID: 21300000, guid: 8af0d1e6c7aa3934480f861f4fee9eb5, type: 3}
    - time: 19.916666
      value: {fileID: 21300000, guid: 97c9f4196cb7ab54cbcbe0a0afb6e8f1, type: 3}
    - time: 20
      value: {fileID: 21300000, guid: 0f0ae646752134f49832be59a41ea416, type: 3}
    - time: 20.083334
      value: {fileID: 21300000, guid: cea9adeea9ba42a4b9b99f06d935ff9f, type: 3}
    - time: 20.166666
      value: {fileID: 21300000, guid: f07e275dd41c1374b895cf94a5b39a1f, type: 3}
    - time: 20.25
      value: {fileID: 21300000, guid: fc41037a04fd95243a8edcd5fc405c87, type: 3}
    - time: 20.333334
      value: {fileID: 21300000, guid: 3541a99d130b9ff43b9f15408e6e47d0, type: 3}
    - time: 20.416666
      value: {fileID: 21300000, guid: c3a74a03cd961aa4dadbb51a9cbbb81a, type: 3}
    - time: 20.5
      value: {fileID: 21300000, guid: 644ff9c269cf34543902d94ccb56cfa7, type: 3}
    - time: 20.583334
      value: {fileID: 21300000, guid: 07ac6653596a09044b14397093c86f66, type: 3}
    - time: 20.666666
      value: {fileID: 21300000, guid: bb27ad3df8eef4840b9ae1c17fbff62c, type: 3}
    - time: 20.75
      value: {fileID: 21300000, guid: 9009d912810bd8c4c80fff1caf76faa9, type: 3}
    - time: 20.833334
      value: {fileID: 21300000, guid: 28d8899e066e8f343bb7a7e72160f28c, type: 3}
    - time: 20.916666
      value: {fileID: 21300000, guid: 8b64ec44adba0de4e8e73d44fc96f0f3, type: 3}
    - time: 21
      value: {fileID: 21300000, guid: 6f19781f532ff5e46aa07e53443d1d6d, type: 3}
    - time: 21.083334
      value: {fileID: 21300000, guid: b0eb32ee323a07e42b9291729b57d7d2, type: 3}
    - time: 21.166666
      value: {fileID: 21300000, guid: e48d581796e49494da78972a39f8c095, type: 3}
    - time: 21.25
      value: {fileID: 21300000, guid: b4aac48b5180c564ebed9179ec6a067d, type: 3}
    - time: 21.333334
      value: {fileID: 21300000, guid: a4cd43997ac904b458d387783ac10ebf, type: 3}
    - time: 21.416666
      value: {fileID: 21300000, guid: 5b6e127314c89604d99b1dfda0239459, type: 3}
    - time: 21.5
      value: {fileID: 21300000, guid: dd271133923520b469ecf3a451723af0, type: 3}
    - time: 21.583334
      value: {fileID: 21300000, guid: cd21c10438d2498428430f3d992eba0e, type: 3}
    - time: 21.666666
      value: {fileID: 21300000, guid: fccee998148b1be429f2b9a69ef854b9, type: 3}
    - time: 21.75
      value: {fileID: 21300000, guid: 070a9597af68d3c409797577890cfada, type: 3}
    - time: 21.833334
      value: {fileID: 21300000, guid: f65eb2f2118afd24a822ad54bdb6f2ea, type: 3}
    - time: 21.916666
      value: {fileID: 21300000, guid: 7a655ca32214bc14b9b260db0e2496da, type: 3}
    - time: 22
      value: {fileID: 21300000, guid: f50c233bc1b8a744db9a4f8bf3142e61, type: 3}
    - time: 22.083334
      value: {fileID: 21300000, guid: 11d1b9cb92dfc534e8ea4f3fb3a208b7, type: 3}
    - time: 22.166666
      value: {fileID: 21300000, guid: f0df4447c0efae544bb15bba352ebd0c, type: 3}
    - time: 22.25
      value: {fileID: 21300000, guid: 4af3e931cf3e11d4697cc4f32a0561e5, type: 3}
    - time: 22.333334
      value: {fileID: 21300000, guid: 753340af775c6f44b8abfde7d71c0728, type: 3}
    - time: 22.416666
      value: {fileID: 21300000, guid: b698392b5970f6a42907958af354b39f, type: 3}
    - time: 22.5
      value: {fileID: 21300000, guid: 1fbf30d1c4f5f954da3bdf925bc6d5ae, type: 3}
    - time: 22.583334
      value: {fileID: 21300000, guid: 7b05d59bc3f107742b278812a4574721, type: 3}
    - time: 22.666666
      value: {fileID: 21300000, guid: e80c2c238d1c6ca41980090d35bdf197, type: 3}
    - time: 22.75
      value: {fileID: 21300000, guid: 0b9d43353c80dee46844ce371371decb, type: 3}
    - time: 22.833334
      value: {fileID: 21300000, guid: 7264c0bf9ecb7914fbf0acd74f183f01, type: 3}
    - time: 22.916666
      value: {fileID: 21300000, guid: f295a5c92e6f41a49a6c22e062594651, type: 3}
    - time: 23
      value: {fileID: 21300000, guid: 879ec93dfeed5b241b7ab74688656e83, type: 3}
    - time: 23.083334
      value: {fileID: 21300000, guid: 8880be1cbbbafac43aaa2c5c12da4f8d, type: 3}
    - time: 23.166666
      value: {fileID: 21300000, guid: f9489d8543dbfd645ba7aa8b80277e3b, type: 3}
    - time: 23.25
      value: {fileID: 21300000, guid: 9c816cd9dc074a048885038688493370, type: 3}
    - time: 23.333334
      value: {fileID: 21300000, guid: b7d940818d48a51498d758317e33878c, type: 3}
    - time: 23.416666
      value: {fileID: 21300000, guid: f698251cfd91eb646855e2374fe9ee29, type: 3}
    - time: 23.5
      value: {fileID: 21300000, guid: 032b64fdd353e624f9dce3132b778d64, type: 3}
    - time: 23.583334
      value: {fileID: 21300000, guid: b2eee8f0b90d3c34fa3afabcaec0245b, type: 3}
    - time: 23.666666
      value: {fileID: 21300000, guid: b132a220015a2d44aa1a617a1ce5b774, type: 3}
    - time: 23.75
      value: {fileID: 21300000, guid: 829c400739bbdc4429445b2aee69ce01, type: 3}
    - time: 23.833334
      value: {fileID: 21300000, guid: 0042759d9ea99b54ab81475c3fd59d7e, type: 3}
    - time: 23.916666
      value: {fileID: 21300000, guid: 3f7773a57e3c2e74faa64ba123257f02, type: 3}
    - time: 24
      value: {fileID: 21300000, guid: a559abc1c0a19804d9b0db0252c98b45, type: 3}
    - time: 24.083334
      value: {fileID: 21300000, guid: d2a0f9aad7a5a75469aa015692a1b72e, type: 3}
    - time: 24.166666
      value: {fileID: 21300000, guid: e2797d8e8f5787b4ea69b148ab960c0b, type: 3}
    - time: 24.25
      value: {fileID: 21300000, guid: e9d91b20c9910fb47887f96ca353c64c, type: 3}
    - time: 24.333334
      value: {fileID: 21300000, guid: 3c56904aeb1e8ea479ba0df703c394d0, type: 3}
    - time: 24.416666
      value: {fileID: 21300000, guid: dde7495e83b02fc4b931c210f6c101f4, type: 3}
    - time: 24.5
      value: {fileID: 21300000, guid: bad68baef4b9d3b45bd387e5a2f31f3a, type: 3}
    - time: 24.583334
      value: {fileID: 21300000, guid: 381e481b19527e940a17fef2557dca7a, type: 3}
    - time: 24.666666
      value: {fileID: 21300000, guid: 34a9e7feb9e6f194c95fd0ae8d4f01a8, type: 3}
    - time: 24.75
      value: {fileID: 21300000, guid: 7678243cd8b6bd64e94f9d935c8f89fb, type: 3}
    - time: 24.833334
      value: {fileID: 21300000, guid: f8976c46bd6c15742b45961412587b17, type: 3}
    - time: 24.916666
      value: {fileID: 21300000, guid: 58f45a758b2f73148b5c3a7131e425ed, type: 3}
    - time: 25
      value: {fileID: 21300000, guid: 268281d5790e7764ea0d1e0fb38ea854, type: 3}
    - time: 25.083334
      value: {fileID: 21300000, guid: 112a38f51361b8940a7ae2940f9476fc, type: 3}
    - time: 25.166666
      value: {fileID: 21300000, guid: 615e7fd8c34b5b0488150f393500d5da, type: 3}
    - time: 25.25
      value: {fileID: 21300000, guid: 45733158cc128dc45a216038bc2d309d, type: 3}
    - time: 25.333334
      value: {fileID: 21300000, guid: a0db4be581e7333418581cca6009be60, type: 3}
    - time: 25.416666
      value: {fileID: 21300000, guid: 0d8cbf30fda0e0f44ba5a791b51044e6, type: 3}
    - time: 25.5
      value: {fileID: 21300000, guid: e9d5b866d88540d4ca1786401b701bf8, type: 3}
    - time: 25.583334
      value: {fileID: 21300000, guid: f71613803e87a624ca86d84f0ab10114, type: 3}
    - time: 25.666666
      value: {fileID: 21300000, guid: 2d9f146b4051eb740b9331353df06fd2, type: 3}
    - time: 25.75
      value: {fileID: 21300000, guid: 32717a92b8207c344a9240dbe61a807a, type: 3}
    - time: 25.833334
      value: {fileID: 21300000, guid: d419cc5568f316d479f9aa5160b662e7, type: 3}
    - time: 25.916666
      value: {fileID: 21300000, guid: b68148df2a89ec746803a15ee1fc7e5e, type: 3}
    - time: 26
      value: {fileID: 21300000, guid: de631226c18a97c489c7959ae0552048, type: 3}
    - time: 26.083334
      value: {fileID: 21300000, guid: a84efe9d34cd5414b8ecf0d9fe63da8f, type: 3}
    - time: 26.166666
      value: {fileID: 21300000, guid: 9c095a64352e6f0459aaa418cd231016, type: 3}
    - time: 26.25
      value: {fileID: 21300000, guid: 17ed2d85aa7fdd942b0af7aefab60828, type: 3}
    - time: 26.333334
      value: {fileID: 21300000, guid: 79a123485b08d8d4aaf79fd81ba955f5, type: 3}
    - time: 26.416666
      value: {fileID: 21300000, guid: f73926f41b533d742af1174b4ec2d0f5, type: 3}
    - time: 26.5
      value: {fileID: 21300000, guid: e92359bc55078cb458ca00f2e70b0337, type: 3}
    - time: 26.583334
      value: {fileID: 21300000, guid: fdfb1c2901eb42d428f618a53397e277, type: 3}
    - time: 26.666666
      value: {fileID: 21300000, guid: 49e3893078dc7c54ba39ac20c8d84887, type: 3}
    - time: 26.75
      value: {fileID: 21300000, guid: b60944793a87e3743b69352f92c01c7e, type: 3}
    - time: 26.833334
      value: {fileID: 21300000, guid: 9c2fd2208de3a4b45bee442bb7fbc89e, type: 3}
    - time: 26.916666
      value: {fileID: 21300000, guid: a162bb8b050c16e448fc8eed91666dc9, type: 3}
    - time: 27
      value: {fileID: 21300000, guid: a969e82d17ebf5e498bc7e0b5b237794, type: 3}
    - time: 27.083334
      value: {fileID: 21300000, guid: a2e9741ce2a94514fb8eb5b809516684, type: 3}
    - time: 27.166666
      value: {fileID: 21300000, guid: 0b6853bdca950a14296e62615b2bddc9, type: 3}
    - time: 27.25
      value: {fileID: 21300000, guid: 7d39d7af72f85ec4db28c5842e5861cb, type: 3}
    - time: 27.333334
      value: {fileID: 21300000, guid: a2dc97b22489bf74a965cbcdf48dc22c, type: 3}
    - time: 27.416666
      value: {fileID: 21300000, guid: 249a6c1372541e349a3cd0cf6b6c21fc, type: 3}
    - time: 27.5
      value: {fileID: 21300000, guid: bc92e02f43b4bf04e9d3e72bf1436067, type: 3}
    - time: 27.583334
      value: {fileID: 21300000, guid: 326ff729a978407479783e3ca173199f, type: 3}
    - time: 27.666666
      value: {fileID: 21300000, guid: 4f7b27d53c5fe5944b22ba09fafcf2c1, type: 3}
    - time: 27.75
      value: {fileID: 21300000, guid: ef815cd57f667d144abe314f32f986c0, type: 3}
    - time: 27.833334
      value: {fileID: 21300000, guid: 73657380d6acfab49b92e5110ce37b7e, type: 3}
    - time: 27.916666
      value: {fileID: 21300000, guid: de4ecf22a8905ff40a697c02cbd9757a, type: 3}
    - time: 28
      value: {fileID: 21300000, guid: d5a978cbb7a17a74a9fda593b98f5ac5, type: 3}
    - time: 28.083334
      value: {fileID: 21300000, guid: 8de73377b64a2824fa156fbb10a7048b, type: 3}
    - time: 28.166666
      value: {fileID: 21300000, guid: 90e2aa22dce53c84a8a9d5adb066885c, type: 3}
    - time: 28.25
      value: {fileID: 21300000, guid: 33d9b4f797cf6144ea61ec83071dfa65, type: 3}
    - time: 28.333334
      value: {fileID: 21300000, guid: c82eef27369b94440bdde1ca19f649d0, type: 3}
    - time: 28.416666
      value: {fileID: 21300000, guid: 30bfda0fa571280428fe5eec12ebaad5, type: 3}
    - time: 28.5
      value: {fileID: 21300000, guid: 5dc8c7b57a4f53941a60459ea0813c42, type: 3}
    - time: 28.583334
      value: {fileID: 21300000, guid: 775a13a90593ad546ad902afa0e09573, type: 3}
    - time: 28.666666
      value: {fileID: 21300000, guid: 269feedaa1f0c134684bbd1a5b700760, type: 3}
    - time: 28.75
      value: {fileID: 21300000, guid: c59bccc1d7c78294392145755387e2be, type: 3}
    - time: 28.833334
      value: {fileID: 21300000, guid: cb8b107a09f60504981ba7ba8f2ad019, type: 3}
    - time: 28.916666
      value: {fileID: 21300000, guid: b9880301e2d09484bb2f2668750968e7, type: 3}
    - time: 29
      value: {fileID: 21300000, guid: 3179f391d580dda40b57dc6d3f797b70, type: 3}
    - time: 29.083334
      value: {fileID: 21300000, guid: f09a918ac085def48b33c2bc6d7e189d, type: 3}
    - time: 29.166666
      value: {fileID: 21300000, guid: 6641ae2df974ac34186a10c0d3348448, type: 3}
    - time: 29.25
      value: {fileID: 21300000, guid: b2e47b9d0e1562f4aba18ec1162c400a, type: 3}
    - time: 29.333334
      value: {fileID: 21300000, guid: ccfa5b6c87087ed46bb812132cffb20c, type: 3}
    - time: 29.416666
      value: {fileID: 21300000, guid: 3ffa07c904301ce44ba29bdc7dcc8e50, type: 3}
    - time: 29.5
      value: {fileID: 21300000, guid: e1bdf12b2666c9646abff0af73dd06e9, type: 3}
    - time: 29.583334
      value: {fileID: 21300000, guid: 16fd569f6792c204eba45bd9e0315753, type: 3}
    - time: 29.666666
      value: {fileID: 21300000, guid: c08e0dfef9ef64d408961c4403f3da8a, type: 3}
    - time: 29.75
      value: {fileID: 21300000, guid: 4d9c7e7fd6c1c4f4b9ef785cda906a7e, type: 3}
    - time: 29.833334
      value: {fileID: 21300000, guid: 57251bbb444f15a43809b6e6c4d3d053, type: 3}
    - time: 29.916666
      value: {fileID: 21300000, guid: 3babd5573cef5a84f9e92ca7bff44b9e, type: 3}
    - time: 30
      value: {fileID: 21300000, guid: 5aaa31b4ef2882247880bfa6a4d26fe0, type: 3}
    - time: 30.083334
      value: {fileID: 21300000, guid: 44d022400cde2d54896367600a013c18, type: 3}
    - time: 30.166666
      value: {fileID: 21300000, guid: 4d122a321107fa84787caefa8ea80d7c, type: 3}
    - time: 30.25
      value: {fileID: 21300000, guid: 08b2a40558f06464d9efcda16f7ea9a2, type: 3}
    - time: 30.333334
      value: {fileID: 21300000, guid: a35969632df78694c86ce8771cd23630, type: 3}
    - time: 30.416666
      value: {fileID: 21300000, guid: 26d1239101fa1824d9162d7eeff3ef9a, type: 3}
    - time: 30.5
      value: {fileID: 21300000, guid: d804a907e9fb7ea4bb5aa04af4135a78, type: 3}
    - time: 30.583334
      value: {fileID: 21300000, guid: 52c2075395ad5e54a9368532752c69a6, type: 3}
    - time: 30.666666
      value: {fileID: 21300000, guid: 51f7ecfd2259f0a4ebddb35f0ede4bf9, type: 3}
    - time: 30.75
      value: {fileID: 21300000, guid: eb4df42a642597c4ab075286c535944e, type: 3}
    - time: 30.833334
      value: {fileID: 21300000, guid: 4fc1140111ee8614594ca7f7680e05de, type: 3}
    - time: 30.916666
      value: {fileID: 21300000, guid: d51d6fa28d05bf948b1a62410f4bed8e, type: 3}
    - time: 31
      value: {fileID: 21300000, guid: d8207c1a52128f845802f776f0c38844, type: 3}
    - time: 31.083334
      value: {fileID: 21300000, guid: 648b42826f0affd4287f5e524f59c61a, type: 3}
    - time: 31.166666
      value: {fileID: 21300000, guid: e63b25953f0c975458fc75e19656380e, type: 3}
    - time: 31.25
      value: {fileID: 21300000, guid: e597ac040de89de4a8723cb19de7697c, type: 3}
    - time: 31.333334
      value: {fileID: 21300000, guid: 07e9b9dcc7081fe41956257c2447576c, type: 3}
    - time: 31.416666
      value: {fileID: 21300000, guid: 7d91d3a745676d2439c41e5260b38434, type: 3}
    - time: 31.5
      value: {fileID: 21300000, guid: aed58539032204741bd2bda45a0ad5bb, type: 3}
    - time: 31.583334
      value: {fileID: 21300000, guid: f3d61f176f1ea0247a530ddc05152ac4, type: 3}
    - time: 31.666666
      value: {fileID: 21300000, guid: 5959cd5b0d1d67941a88295f25bebe45, type: 3}
    - time: 31.75
      value: {fileID: 21300000, guid: a72e0f4916c70f64594e7feb3b60596d, type: 3}
    - time: 31.833334
      value: {fileID: 21300000, guid: 767f74a5047b6cc4284f6af48fa430f6, type: 3}
    - time: 31.916666
      value: {fileID: 21300000, guid: e4ed499d858ad9147b08acee6aa1023d, type: 3}
    - time: 32
      value: {fileID: 21300000, guid: e808f550d18bc0547b9b9e8210fd8ef5, type: 3}
    - time: 32.083332
      value: {fileID: 21300000, guid: a148eccbbcf9206499bb2b5977f63162, type: 3}
    - time: 32.166668
      value: {fileID: 21300000, guid: fae0a94b50008d04d905924b4fbf1b45, type: 3}
    - time: 32.25
      value: {fileID: 21300000, guid: bfc76f6b17875924e91a982a879ecfdf, type: 3}
    - time: 32.333332
      value: {fileID: 21300000, guid: 9fe6e1a13e1ab2d4d914430234a39e96, type: 3}
    - time: 32.416668
      value: {fileID: 21300000, guid: f6d1fc97ad6c79c47bc646247606e87f, type: 3}
    - time: 32.5
      value: {fileID: 21300000, guid: 74b002bfa29d97e40b6ed0e1037811d3, type: 3}
    - time: 32.583332
      value: {fileID: 21300000, guid: 7f0bb4eceb28c224e80fc494bc8d21ec, type: 3}
    - time: 32.666668
      value: {fileID: 21300000, guid: 8ce448bcb4d80f3439e269f8149eb2e6, type: 3}
    - time: 32.75
      value: {fileID: 21300000, guid: 3f210cd822507a345a5d0f6d39eb14dc, type: 3}
    - time: 32.833332
      value: {fileID: 21300000, guid: 6a4e596a8412a5845a26c6dbdbbe2194, type: 3}
    - time: 32.916668
      value: {fileID: 21300000, guid: d5e0eca9ee9a24a4f976b3e1d83b7dc6, type: 3}
    - time: 33
      value: {fileID: 21300000, guid: 7c5f81d9cbec8944cbeeb01709c22aa3, type: 3}
    - time: 33.083332
      value: {fileID: 21300000, guid: c3bcb3f286dab4f4f95da7b97cc6fc94, type: 3}
    - time: 33.166668
      value: {fileID: 21300000, guid: dcfcf58ec78142347b88b17a7c2936f2, type: 3}
    - time: 33.25
      value: {fileID: 21300000, guid: fb2f05d713c192a4786069bf03c7417d, type: 3}
    - time: 33.333332
      value: {fileID: 21300000, guid: 161d30de9d3a07e488516d9bda2ac3dd, type: 3}
    - time: 33.416668
      value: {fileID: 21300000, guid: 9cdd67e857991404b8801043894189fa, type: 3}
    - time: 33.5
      value: {fileID: 21300000, guid: cfc673808619786469f3240342e6a3fa, type: 3}
    attribute: m_Sprite
    path: 
    classID: 212
    script: {fileID: 0}
  m_SampleRate: 12
  m_WrapMode: 0
  m_Bounds:
    m_Center: {x: 0, y: 0, z: 0}
    m_Extent: {x: 0, y: 0, z: 0}
  m_ClipBindingConstant:
    genericBindings:
    - serializedVersion: 2
      path: 0
      attribute: 0
      script: {fileID: 0}
      typeID: 212
      customType: 23
      isPPtrCurve: 1
    pptrCurveMapping:
    - {fileID: 21300000, guid: cfbcc25288f9e894bbdf1eac83e5cc20, type: 3}
    - {fileID: 21300000, guid: c7326fa0c85cc02449d58e29a75e84f4, type: 3}
    - {fileID: 21300000, guid: 88982d80f1d4caf4bbe3818cdd4b8f9b, type: 3}
    - {fileID: 21300000, guid: 0a8f5e8ee8466024d9d71689dbd90c2d, type: 3}
    - {fileID: 21300000, guid: 4efe08de2e4d2e4499fd16bc1b25bd2f, type: 3}
    - {fileID: 21300000, guid: 86dcdf74179706d449b2ddc043ce6e39, type: 3}
    - {fileID: 21300000, guid: c06e7e05a4eb7cd418cf5069e1b04255, type: 3}
    - {fileID: 21300000, guid: 895dbbea5d6550e44a3d666f73bff015, type: 3}
    - {fileID: 21300000, guid: 28eb287ee946e4f4ba2ad67b256c952a, type: 3}
    - {fileID: 21300000, guid: 4635a330b7640fb499ecd42c213b7b39, type: 3}
    - {fileID: 21300000, guid: 33b682c899866694e95b870f05255e02, type: 3}
    - {fileID: 21300000, guid: e80b911a059173f49bc31f8f5969838d, type: 3}
    - {fileID: 21300000, guid: 9d6bd53d2201d4c469c02424f98be98f, type: 3}
    - {fileID: 21300000, guid: 7a4d81178289dc345805cc48525a58f7, type: 3}
    - {fileID: 21300000, guid: f87ab0a936c4478439c7548f4e347d32, type: 3}
    - {fileID: 21300000, guid: 0a69320ffa6698f46b0acdd1965f121e, type: 3}
    - {fileID: 21300000, guid: fdf520deb473fd04b98183c88a5167c6, type: 3}
    - {fileID: 21300000, guid: ae457c498164f6f459d976e1280deade, type: 3}
    - {fileID: 21300000, guid: 96cb2c33645c2c94d8e37f14e7833875, type: 3}
    - {fileID: 21300000, guid: ceaa49e0857935a4bbf0390443cd0a27, type: 3}
    - {fileID: 21300000, guid: f2a3dfd1cde822346a45fee8f7e6dfaf, type: 3}
    - {fileID: 21300000, guid: 79f41194c95152b4c8e329e087aff881, type: 3}
    - {fileID: 21300000, guid: bd4d5b6822b600c458eda60944d8f7c6, type: 3}
    - {fileID: 21300000, guid: 735b84773acdd574e88b008cf8987771, type: 3}
    - {fileID: 21300000, guid: 3432d3ff3bc5a0247b1a370671b12f86, type: 3}
    - {fileID: 21300000, guid: b67a3d9df3999c843a3a8f1ab68116e4, type: 3}
    - {fileID: 21300000, guid: 9ab1ea336d5a9b743b26eb4c4a2a5572, type: 3}
    - {fileID: 21300000, guid: 6711cb18c0aaba741af3633835bf906e, type: 3}
    - {fileID: 21300000, guid: 54fa29a7e52c69148a1838f28ebcbd91, type: 3}
    - {fileID: 21300000, guid: 7f59a21a1c9d93c4aab2e990f6a26c83, type: 3}
    - {fileID: 21300000, guid: 1b231551cb2b7504f96aa8426190a9a2, type: 3}
    - {fileID: 21300000, guid: b98f5056f0acb4d48b3a6ee65ff245a1, type: 3}
    - {fileID: 21300000, guid: fae942600269f724aafe3baa5f1f5d7e, type: 3}
    - {fileID: 21300000, guid: d8e92bb57ad472048a521877ea69d231, type: 3}
    - {fileID: 21300000, guid: 758b389e4c34b574f99f249b6a21a90d, type: 3}
    - {fileID: 21300000, guid: fb673d03b498cba4ab62a01b16b5780a, type: 3}
    - {fileID: 21300000, guid: 842da19c5638e49409501e34fc815573, type: 3}
    - {fileID: 21300000, guid: c08d8ef90c017744dbc6ac272008fe4f, type: 3}
    - {fileID: 21300000, guid: 17a0ff158cf56594b94d57df79c38a9f, type: 3}
    - {fileID: 21300000, guid: 51f6362be9eec144589ffeca3d4bc54a, type: 3}
    - {fileID: 21300000, guid: 2fce0b4f97343ac4e9bdbeb596e21d02, type: 3}
    - {fileID: 21300000, guid: 6e1c021aeaee38642bc46241fc0ab881, type: 3}
    - {fileID: 21300000, guid: 9df80cb516d465849abfc2bbc02170f7, type: 3}
    - {fileID: 21300000, guid: 87e5d91d1ae0d0b49b42a020cc0f18f7, type: 3}
    - {fileID: 21300000, guid: 70d536d37220ace469ec5115ad8f6497, type: 3}
    - {fileID: 21300000, guid: 6473613b2f92e1445906849ff2117215, type: 3}
    - {fileID: 21300000, guid: 32cc9fc8decff4e4e914da07e89b8a0d, type: 3}
    - {fileID: 21300000, guid: 368b5505628d0f540ad1e115da5155b8, type: 3}
    - {fileID: 21300000, guid: 8a84b4159cb8ddd44984c5684d4a27c9, type: 3}
    - {fileID: 21300000, guid: 7729821f90a857d469081a95116eb570, type: 3}
    - {fileID: 21300000, guid: 09aecec4de4031c4caede95ffd622448, type: 3}
    - {fileID: 21300000, guid: bda9255cc0baacf4b877e7345787312c, type: 3}
    - {fileID: 21300000, guid: b3923505a1c597543acbedd4c5326267, type: 3}
    - {fileID: 21300000, guid: 18ff772d6d19ccf49b20fcdcde1e1164, type: 3}
    - {fileID: 21300000, guid: 1320dea0c7e8a6b4cbb517958b7dcd7a, type: 3}
    - {fileID: 21300000, guid: 09c209d7bffc6c44597133e55c890d38, type: 3}
    - {fileID: 21300000, guid: c8e88d2a368fd6749a7e01349414c04c, type: 3}
    - {fileID: 21300000, guid: 0d883a5c8a2485b4eb053366493965dd, type: 3}
    - {fileID: 21300000, guid: 0a4211835569f2940822859a1c78e138, type: 3}
    - {fileID: 21300000, guid: 1fe877249b1980c4c91d35588b2463fa, type: 3}
    - {fileID: 21300000, guid: 0b0a867565b8ca4468d9c854c5bf6331, type: 3}
    - {fileID: 21300000, guid: 7fb2c77ee8a59874296d4bf78aba298f, type: 3}
    - {fileID: 21300000, guid: 53a7ea9f978060949a033a6e402759ff, type: 3}
    - {fileID: 21300000, guid: 222267264e4dfc246b77cbf968c42881, type: 3}
    - {fileID: 21300000, guid: 137a46ba7783b964ba325d1c086e8645, type: 3}
    - {fileID: 21300000, guid: c568e1d2d3e6a4042b6463474dba23cf, type: 3}
    - {fileID: 21300000, guid: 7505077794f5a61479559a92f586fba7, type: 3}
    - {fileID: 21300000, guid: 3a199558088c2e84f843596bd2eab721, type: 3}
    - {fileID: 21300000, guid: 8adf5894b78ad714e842a2962ab9b26a, type: 3}
    - {fileID: 21300000, guid: 37be9b1df23063d4888aaaa9d65f6a9c, type: 3}
    - {fileID: 21300000, guid: 657548725cc41394e85f80b06199678c, type: 3}
    - {fileID: 21300000, guid: cd808f879f2133f4bacc019e2ab9b3cc, type: 3}
    - {fileID: 21300000, guid: 4d50aa2cc8979d24ba1d2dd8f704ebfe, type: 3}
    - {fileID: 21300000, guid: 9a61836f2be7aa7409587135558e809b, type: 3}
    - {fileID: 21300000, guid: 4b8de594c408f97468e92ee13fdf1300, type: 3}
    - {fileID: 21300000, guid: b2aedf49f80b4e741b92f3a2cc41993b, type: 3}
    - {fileID: 21300000, guid: 4a15c0e1d4007284d92e4a9b06f0a8d4, type: 3}
    - {fileID: 21300000, guid: 0041d5c56142b0d498c74120d6ed4ea5, type: 3}
    - {fileID: 21300000, guid: a40ce63dd78284d43841c4a2d01d6638, type: 3}
    - {fileID: 21300000, guid: dafe0de678c9a5a478966a68ca84d57a, type: 3}
    - {fileID: 21300000, guid: 9c51e56e3b4e3d740b21cb5be4d0c050, type: 3}
    - {fileID: 21300000, guid: 5ef03806f728af94dbd9542f03582c2a, type: 3}
    - {fileID: 21300000, guid: a39cf646a9f58684d9ed3e1779993342, type: 3}
    - {fileID: 21300000, guid: 07323b71120534d4f8519a0c3016b8e2, type: 3}
    - {fileID: 21300000, guid: b05993455987e8144a3157216f182174, type: 3}
    - {fileID: 21300000, guid: 2ba331e078b219b4c80d96d549ec5cfd, type: 3}
    - {fileID: 21300000, guid: 6003761f75395f54590de4efdc51035c, type: 3}
    - {fileID: 21300000, guid: 8aef27926dcb0a24ea14dd3ed65c9abc, type: 3}
    - {fileID: 21300000, guid: 21eca5e335d9e7b4aae57e93e9ead6bf, type: 3}
    - {fileID: 21300000, guid: 24d520b6195e005419883fefce282e6e, type: 3}
    - {fileID: 21300000, guid: 9cae1c8337cfcb24badb681f65064226, type: 3}
    - {fileID: 21300000, guid: 6053f44e87bf76849ba4ef07d4edc141, type: 3}
    - {fileID: 21300000, guid: b5db7b63dba01ce4a9def27e8be9331b, type: 3}
    - {fileID: 21300000, guid: f5595fc5a844efd489630e25e0476a73, type: 3}
    - {fileID: 21300000, guid: ad943585e6ce24a46b97c9d2ee0694d2, type: 3}
    - {fileID: 21300000, guid: c8693e514c347f242ae57b69b59325c5, type: 3}
    - {fileID: 21300000, guid: 17ef237fd80ff904ab5fa9b5f096eb15, type: 3}
    - {fileID: 21300000, guid: 03a6fed322d9aa64884bea547ef004bd, type: 3}
    - {fileID: 21300000, guid: 93177fd7efb80f9498741cf594ff8448, type: 3}
    - {fileID: 21300000, guid: 7118320838bc5204e8d1f79cb014822b, type: 3}
    - {fileID: 21300000, guid: 00532513445dd3c4ab3e6b7fda80962e, type: 3}
    - {fileID: 21300000, guid: f6a7df925c688a643b6974b8e322f9f9, type: 3}
    - {fileID: 21300000, guid: d2fcf5be0e0570746b75c1d84e05fdb0, type: 3}
    - {fileID: 21300000, guid: 48efd313a5f204b42b49ef949ca472ba, type: 3}
    - {fileID: 21300000, guid: f2b944fbbfd1989428f9a4b47a623f82, type: 3}
    - {fileID: 21300000, guid: 9b0712938b0f7a1468fe4eadd2336b68, type: 3}
    - {fileID: 21300000, guid: 328416c4fa1e8524296664d175d5bdf5, type: 3}
    - {fileID: 21300000, guid: 1f83f90f0478c524d9b659fa4b35718e, type: 3}
    - {fileID: 21300000, guid: daedd61791d8ffa478aed6371db3215e, type: 3}
    - {fileID: 21300000, guid: e84717e4ee719e74bba8dec6eb78aeac, type: 3}
    - {fileID: 21300000, guid: b89fad61851cb22479b89f9002fa1301, type: 3}
    - {fileID: 21300000, guid: 70ffb51fd6177744181e6180068759f2, type: 3}
    - {fileID: 21300000, guid: e3aea5c7db09e0849b20be1cddd64f78, type: 3}
    - {fileID: 21300000, guid: 9271c369533a2724eafa35d8712179b6, type: 3}
    - {fileID: 21300000, guid: e2fa1307adabf154890562fa63dc28c5, type: 3}
    - {fileID: 21300000, guid: 50de051039d3a6b42a41d936b331f89d, type: 3}
    - {fileID: 21300000, guid: 7f4f454200c287f45beab6d85c0a39a5, type: 3}
    - {fileID: 21300000, guid: 98f0125a45f548c41a6c9094b56863c1, type: 3}
    - {fileID: 21300000, guid: 189fa7c8823a5884db7a85ef0f74326c, type: 3}
    - {fileID: 21300000, guid: 33f40a8b0834f354b89c34f9183ae1a0, type: 3}
    - {fileID: 21300000, guid: 6d3453c6a54470645acc37572d891283, type: 3}
    - {fileID: 21300000, guid: dc54dc09e2235064094b881a8e3ecdd6, type: 3}
    - {fileID: 21300000, guid: e43d3431943d31c4abb398832cf76278, type: 3}
    - {fileID: 21300000, guid: c210f84204f59c840b3ff9c22b27cd72, type: 3}
    - {fileID: 21300000, guid: 6d99b98d37a5a214fac844feef2ffe04, type: 3}
    - {fileID: 21300000, guid: 32623a53303c19f4ebe02327bf484d1e, type: 3}
    - {fileID: 21300000, guid: b160cff36d4e13d4ca55b970b429a156, type: 3}
    - {fileID: 21300000, guid: 35e56ab11eb61c849a4543c234da19f1, type: 3}
    - {fileID: 21300000, guid: 2b46f0aff19a87a4c8dc4c7075723baa, type: 3}
    - {fileID: 21300000, guid: b43e112a08305e742820c99752cb98c2, type: 3}
    - {fileID: 21300000, guid: 72e96a0219961e14c9725ab99e6df311, type: 3}
    - {fileID: 21300000, guid: dea591603c99d3445976560fe4aa186f, type: 3}
    - {fileID: 21300000, guid: 57f3497b4ee550148bc31339f2a9a9aa, type: 3}
    - {fileID: 21300000, guid: b70d95aa84c4bff4180fa74b5aacbea7, type: 3}
    - {fileID: 21300000, guid: 344791adb3a569d44ab924d6dd9f2ca4, type: 3}
    - {fileID: 21300000, guid: 344448afd81923641a3113e51349f499, type: 3}
    - {fileID: 21300000, guid: c76f809c23862a146866099238430c7f, type: 3}
    - {fileID: 21300000, guid: fc8a9ea0461980546a9e5d0352936e6e, type: 3}
    - {fileID: 21300000, guid: 348ad448e0d5dab4a9e5cbf965f86c6d, type: 3}
    - {fileID: 21300000, guid: c64e04c29c60668458fb3f26c713b47d, type: 3}
    - {fileID: 21300000, guid: 82f6a33466e39a540bac2e730ffff0df, type: 3}
    - {fileID: 21300000, guid: 80a74474bb85a30459d65648fe030059, type: 3}
    - {fileID: 21300000, guid: 524c6afe0a8d4e446b56ab8100df6719, type: 3}
    - {fileID: 21300000, guid: 0da7f14d5cf904543b3b756aa0ac30f7, type: 3}
    - {fileID: 21300000, guid: 15e3740c1aec8d34585881ab0dfba2ee, type: 3}
    - {fileID: 21300000, guid: 1d4508d5d59e9fa4596479bf09252900, type: 3}
    - {fileID: 21300000, guid: cdf28328a9335a44180a3f1652ff73ea, type: 3}
    - {fileID: 21300000, guid: 7c5c3f0ad48d9c6429df9294ae2e5ca9, type: 3}
    - {fileID: 21300000, guid: 8df4efabada46b84eab0c3a2d52cf3b1, type: 3}
    - {fileID: 21300000, guid: 9b8c0a05d69934b4486188876e45d6b4, type: 3}
    - {fileID: 21300000, guid: 8fe7a22005aaf034681000e5a328101d, type: 3}
    - {fileID: 21300000, guid: 0ef5c786ec108274a8b4e43f1f054fb4, type: 3}
    - {fileID: 21300000, guid: 654ddb7572486c74dadecabbc03205be, type: 3}
    - {fileID: 21300000, guid: aa7b74d0d4f9bf8478eb1daef119155d, type: 3}
    - {fileID: 21300000, guid: 26fb764c510b51a458a632ffc410b788, type: 3}
    - {fileID: 21300000, guid: f1b056181c82a134b848f34c0864e595, type: 3}
    - {fileID: 21300000, guid: 93f178053a897f248811fbe82350ece7, type: 3}
    - {fileID: 21300000, guid: 1963b1169289b94479ab5acaff97ed19, type: 3}
    - {fileID: 21300000, guid: 41803457f0c76454f8ba65865285598e, type: 3}
    - {fileID: 21300000, guid: 470d01c4c4d327942bd32f584028e8d9, type: 3}
    - {fileID: 21300000, guid: 6c0e267f736524d44844f39925e798ae, type: 3}
    - {fileID: 21300000, guid: 04baf21e1f6516142acb468f00de82b8, type: 3}
    - {fileID: 21300000, guid: 29dbe398c9b245546ac70e10fa7d0580, type: 3}
    - {fileID: 21300000, guid: a977fad445934684593d6c2213e36824, type: 3}
    - {fileID: 21300000, guid: c4cf2213ba732e646901d6ad678a36d4, type: 3}
    - {fileID: 21300000, guid: b47c00b971cd5ea48b260afe7070be8f, type: 3}
    - {fileID: 21300000, guid: 094f527639fa13f48b344e833d48baf0, type: 3}
    - {fileID: 21300000, guid: ffc90d717b7bbc84e8657c0f265f0caa, type: 3}
    - {fileID: 21300000, guid: e09a288e691ded642bafb8b8905289f5, type: 3}
    - {fileID: 21300000, guid: 053f664b8eba3b94c97af210dea07d4f, type: 3}
    - {fileID: 21300000, guid: e9dffa68a5056a74e8a4cd5fee05a5fb, type: 3}
    - {fileID: 21300000, guid: 8bc43ec50e3746344a950b466c227991, type: 3}
    - {fileID: 21300000, guid: 97c9e3c645bc2f447a5455df7b20920f, type: 3}
    - {fileID: 21300000, guid: dd89174f8c02b1740b4477e2ceb7c349, type: 3}
    - {fileID: 21300000, guid: 4ba7313fb95bb814a9e42d2b28f1c8d2, type: 3}
    - {fileID: 21300000, guid: f629da4bdb3de154eaf9af810e06bcd7, type: 3}
    - {fileID: 21300000, guid: 896af662fd40ec7438baad4fc001d3f1, type: 3}
    - {fileID: 21300000, guid: a2b6cadfbd8aa02408b0c48ff680bdb3, type: 3}
    - {fileID: 21300000, guid: df97945ef355b5c4b8b2e1e96e33d0cb, type: 3}
    - {fileID: 21300000, guid: e682195d9ee2e65448a55c1e6eb1129d, type: 3}
    - {fileID: 21300000, guid: b7984224ac116d54aa0936adbfcea14a, type: 3}
    - {fileID: 21300000, guid: d28ebd0b7c542254eabbc44e61697fd5, type: 3}
    - {fileID: 21300000, guid: d8f526fe3e95857428e5ae9cd8893c1e, type: 3}
    - {fileID: 21300000, guid: f2d4276505e74de45b2b5921baba4fc3, type: 3}
    - {fileID: 21300000, guid: bcc8225900314fd4e9c750b39aee4fa9, type: 3}
    - {fileID: 21300000, guid: 83b9c30671015ab4ab15a66c0364d8d3, type: 3}
    - {fileID: 21300000, guid: c86cf46868b1d8345a49d7407a91f160, type: 3}
    - {fileID: 21300000, guid: d4116bfafa8adbb4482791d634f952c2, type: 3}
    - {fileID: 21300000, guid: 1bb2d6f0c9dd50d459eca435daf58b1e, type: 3}
    - {fileID: 21300000, guid: b7ad47694e0eb624a9b8641f31cc28a3, type: 3}
    - {fileID: 21300000, guid: 3ee01d2e8ce1c8a45b0a428d7e35ec7e, type: 3}
    - {fileID: 21300000, guid: b626dbd55b81b304dac0b138f08724a4, type: 3}
    - {fileID: 21300000, guid: 91358a14d4893024681eb5cd65063f97, type: 3}
    - {fileID: 21300000, guid: 07ef93fb99f43ba43a92c49d729a4f7c, type: 3}
    - {fileID: 21300000, guid: 543f5ac60eb59684e890721bc311dce7, type: 3}
    - {fileID: 21300000, guid: 1e4f9a259a42a7a44b9e6f3309d51781, type: 3}
    - {fileID: 21300000, guid: 14c342e872d603741925363e2a9d2550, type: 3}
    - {fileID: 21300000, guid: 7b663a92b84f8d440a254623a85206e6, type: 3}
    - {fileID: 21300000, guid: 4f7567dbbe68708408b92e0bd2025614, type: 3}
    - {fileID: 21300000, guid: 91ea5a6a12ef80f43bef10c2765d0d0a, type: 3}
    - {fileID: 21300000, guid: 35054369fbe105746bed75a855a70839, type: 3}
    - {fileID: 21300000, guid: b611a286e08d90f4ea5f70442db7380d, type: 3}
    - {fileID: 21300000, guid: 700baf55b8bb36841b978ff32ed7ed38, type: 3}
    - {fileID: 21300000, guid: a394669465121d14285b44076d16616d, type: 3}
    - {fileID: 21300000, guid: 8970ac6fcd790d24a88b6a3f7d2ab2cf, type: 3}
    - {fileID: 21300000, guid: be8b8dd5de0086c4eaa99794bd3777ea, type: 3}
    - {fileID: 21300000, guid: b97b070f57f330340804b58fa6f7f73f, type: 3}
    - {fileID: 21300000, guid: 3c3127a212175944fa81ebc0cfb8da65, type: 3}
    - {fileID: 21300000, guid: 37ab39f54b10ac445a9bbf1d952a610a, type: 3}
    - {fileID: 21300000, guid: 74cd023c94ed9c840b9a136479fa0190, type: 3}
    - {fileID: 21300000, guid: 567c85e2b8749d44999750219f225f45, type: 3}
    - {fileID: 21300000, guid: 6ef5fa1132148824899906783341ba35, type: 3}
    - {fileID: 21300000, guid: 4520f8143f710834aac858a576453bfa, type: 3}
    - {fileID: 21300000, guid: f442982f398db0144a13dcf2a3d901fd, type: 3}
    - {fileID: 21300000, guid: 7ab820727771fd54ebc473b64e39d524, type: 3}
    - {fileID: 21300000, guid: ced44d24bffc80a41ac7cf70ac0eaa49, type: 3}
    - {fileID: 21300000, guid: 74c79572a2ee06e4dabf7a42a8436ec4, type: 3}
    - {fileID: 21300000, guid: f9287d5529380204fbe24fc7ec57c332, type: 3}
    - {fileID: 21300000, guid: 4aa185fd2766fb14c8cec5dcce1206a6, type: 3}
    - {fileID: 21300000, guid: 8fe5de55c2c527443812c55ddeaa6414, type: 3}
    - {fileID: 21300000, guid: 218f2ca701761ec4db97f619c158a9cc, type: 3}
    - {fileID: 21300000, guid: 6a5b9c167adb4c84381fa32dc0da51ec, type: 3}
    - {fileID: 21300000, guid: 34b7df93983baf646a15501fca55e820, type: 3}
    - {fileID: 21300000, guid: 9f89d9903f447bc48b9d69156c0cb0aa, type: 3}
    - {fileID: 21300000, guid: fbbcdd0aebc5e20408573e1ef121d2e3, type: 3}
    - {fileID: 21300000, guid: f3a7f64dc7981b1458fb363e531e1a9c, type: 3}
    - {fileID: 21300000, guid: 43120466357c61b4db1e6ff26a4c29af, type: 3}
    - {fileID: 21300000, guid: 4fe22210d4ea7654381cc54bdd4c40ca, type: 3}
    - {fileID: 21300000, guid: 4ae2fd97b0c94884a8c3e1a2f9a17a43, type: 3}
    - {fileID: 21300000, guid: e8be03e7d7ff5c447a657bfa334d81e3, type: 3}
    - {fileID: 21300000, guid: 4aa1f740b6b280a4a8e0e7dcd3bd4a83, type: 3}
    - {fileID: 21300000, guid: 6a98caaca04b9d3458793a1e8e3e66d8, type: 3}
    - {fileID: 21300000, guid: d74e0810ebf07d742a118f1c541e65da, type: 3}
    - {fileID: 21300000, guid: e5c85e1a76a298a4d9e3a7f1b716e99e, type: 3}
    - {fileID: 21300000, guid: e29f38dc0c6b8554e954b82d8b026b1e, type: 3}
    - {fileID: 21300000, guid: 516a794cafc2d7d4faafc62a7ecce684, type: 3}
    - {fileID: 21300000, guid: a5d2fe7c2fe201a48945397881199761, type: 3}
    - {fileID: 21300000, guid: 481de0896690e714bbe1475053a44aed, type: 3}
    - {fileID: 21300000, guid: 8af0d1e6c7aa3934480f861f4fee9eb5, type: 3}
    - {fileID: 21300000, guid: 97c9f4196cb7ab54cbcbe0a0afb6e8f1, type: 3}
    - {fileID: 21300000, guid: 0f0ae646752134f49832be59a41ea416, type: 3}
    - {fileID: 21300000, guid: cea9adeea9ba42a4b9b99f06d935ff9f, type: 3}
    - {fileID: 21300000, guid: f07e275dd41c1374b895cf94a5b39a1f, type: 3}
    - {fileID: 21300000, guid: fc41037a04fd95243a8edcd5fc405c87, type: 3}
    - {fileID: 21300000, guid: 3541a99d130b9ff43b9f15408e6e47d0, type: 3}
    - {fileID: 21300000, guid: c3a74a03cd961aa4dadbb51a9cbbb81a, type: 3}
    - {fileID: 21300000, guid: 644ff9c269cf34543902d94ccb56cfa7, type: 3}
    - {fileID: 21300000, guid: 07ac6653596a09044b14397093c86f66, type: 3}
    - {fileID: 21300000, guid: bb27ad3df8eef4840b9ae1c17fbff62c, type: 3}
    - {fileID: 21300000, guid: 9009d912810bd8c4c80fff1caf76faa9, type: 3}
    - {fileID: 21300000, guid: 28d8899e066e8f343bb7a7e72160f28c, type: 3}
    - {fileID: 21300000, guid: 8b64ec44adba0de4e8e73d44fc96f0f3, type: 3}
    - {fileID: 21300000, guid: 6f19781f532ff5e46aa07e53443d1d6d, type: 3}
    - {fileID: 21300000, guid: b0eb32ee323a07e42b9291729b57d7d2, type: 3}
    - {fileID: 21300000, guid: e48d581796e49494da78972a39f8c095, type: 3}
    - {fileID: 21300000, guid: b4aac48b5180c564ebed9179ec6a067d, type: 3}
    - {fileID: 21300000, guid: a4cd43997ac904b458d387783ac10ebf, type: 3}
    - {fileID: 21300000, guid: 5b6e127314c89604d99b1dfda0239459, type: 3}
    - {fileID: 21300000, guid: dd271133923520b469ecf3a451723af0, type: 3}
    - {fileID: 21300000, guid: cd21c10438d2498428430f3d992eba0e, type: 3}
    - {fileID: 21300000, guid: fccee998148b1be429f2b9a69ef854b9, type: 3}
    - {fileID: 21300000, guid: 070a9597af68d3c409797577890cfada, type: 3}
    - {fileID: 21300000, guid: f65eb2f2118afd24a822ad54bdb6f2ea, type: 3}
    - {fileID: 21300000, guid: 7a655ca32214bc14b9b260db0e2496da, type: 3}
    - {fileID: 21300000, guid: f50c233bc1b8a744db9a4f8bf3142e61, type: 3}
    - {fileID: 21300000, guid: 11d1b9cb92dfc534e8ea4f3fb3a208b7, type: 3}
    - {fileID: 21300000, guid: f0df4447c0efae544bb15bba352ebd0c, type: 3}
    - {fileID: 21300000, guid: 4af3e931cf3e11d4697cc4f32a0561e5, type: 3}
    - {fileID: 21300000, guid: 753340af775c6f44b8abfde7d71c0728, type: 3}
    - {fileID: 21300000, guid: b698392b5970f6a42907958af354b39f, type: 3}
    - {fileID: 21300000, guid: 1fbf30d1c4f5f954da3bdf925bc6d5ae, type: 3}
    - {fileID: 21300000, guid: 7b05d59bc3f107742b278812a4574721, type: 3}
    - {fileID: 21300000, guid: e80c2c238d1c6ca41980090d35bdf197, type: 3}
    - {fileID: 21300000, guid: 0b9d43353c80dee46844ce371371decb, type: 3}
    - {fileID: 21300000, guid: 7264c0bf9ecb7914fbf0acd74f183f01, type: 3}
    - {fileID: 21300000, guid: f295a5c92e6f41a49a6c22e062594651, type: 3}
    - {fileID: 21300000, guid: 879ec93dfeed5b241b7ab74688656e83, type: 3}
    - {fileID: 21300000, guid: 8880be1cbbbafac43aaa2c5c12da4f8d, type: 3}
    - {fileID: 21300000, guid: f9489d8543dbfd645ba7aa8b80277e3b, type: 3}
    - {fileID: 21300000, guid: 9c816cd9dc074a048885038688493370, type: 3}
    - {fileID: 21300000, guid: b7d940818d48a51498d758317e33878c, type: 3}
    - {fileID: 21300000, guid: f698251cfd91eb646855e2374fe9ee29, type: 3}
    - {fileID: 21300000, guid: 032b64fdd353e624f9dce3132b778d64, type: 3}
    - {fileID: 21300000, guid: b2eee8f0b90d3c34fa3afabcaec0245b, type: 3}
    - {fileID: 21300000, guid: b132a220015a2d44aa1a617a1ce5b774, type: 3}
    - {fileID: 21300000, guid: 829c400739bbdc4429445b2aee69ce01, type: 3}
    - {fileID: 21300000, guid: 0042759d9ea99b54ab81475c3fd59d7e, type: 3}
    - {fileID: 21300000, guid: 3f7773a57e3c2e74faa64ba123257f02, type: 3}
    - {fileID: 21300000, guid: a559abc1c0a19804d9b0db0252c98b45, type: 3}
    - {fileID: 21300000, guid: d2a0f9aad7a5a75469aa015692a1b72e, type: 3}
    - {fileID: 21300000, guid: e2797d8e8f5787b4ea69b148ab960c0b, type: 3}
    - {fileID: 21300000, guid: e9d91b20c9910fb47887f96ca353c64c, type: 3}
    - {fileID: 21300000, guid: 3c56904aeb1e8ea479ba0df703c394d0, type: 3}
    - {fileID: 21300000, guid: dde7495e83b02fc4b931c210f6c101f4, type: 3}
    - {fileID: 21300000, guid: bad68baef4b9d3b45bd387e5a2f31f3a, type: 3}
    - {fileID: 21300000, guid: 381e481b19527e940a17fef2557dca7a, type: 3}
    - {fileID: 21300000, guid: 34a9e7feb9e6f194c95fd0ae8d4f01a8, type: 3}
    - {fileID: 21300000, guid: 7678243cd8b6bd64e94f9d935c8f89fb, type: 3}
    - {fileID: 21300000, guid: f8976c46bd6c15742b45961412587b17, type: 3}
    - {fileID: 21300000, guid: 58f45a758b2f73148b5c3a7131e425ed, type: 3}
    - {fileID: 21300000, guid: 268281d5790e7764ea0d1e0fb38ea854, type: 3}
    - {fileID: 21300000, guid: 112a38f51361b8940a7ae2940f9476fc, type: 3}
    - {fileID: 21300000, guid: 615e7fd8c34b5b0488150f393500d5da, type: 3}
    - {fileID: 21300000, guid: 45733158cc128dc45a216038bc2d309d, type: 3}
    - {fileID: 21300000, guid: a0db4be581e7333418581cca6009be60, type: 3}
    - {fileID: 21300000, guid: 0d8cbf30fda0e0f44ba5a791b51044e6, type: 3}
    - {fileID: 21300000, guid: e9d5b866d88540d4ca1786401b701bf8, type: 3}
    - {fileID: 21300000, guid: f71613803e87a624ca86d84f0ab10114, type: 3}
    - {fileID: 21300000, guid: 2d9f146b4051eb740b9331353df06fd2, type: 3}
    - {fileID: 21300000, guid: 32717a92b8207c344a9240dbe61a807a, type: 3}
    - {fileID: 21300000, guid: d419cc5568f316d479f9aa5160b662e7, type: 3}
    - {fileID: 21300000, guid: b68148df2a89ec746803a15ee1fc7e5e, type: 3}
    - {fileID: 21300000, guid: de631226c18a97c489c7959ae0552048, type: 3}
    - {fileID: 21300000, guid: a84efe9d34cd5414b8ecf0d9fe63da8f, type: 3}
    - {fileID: 21300000, guid: 9c095a64352e6f0459aaa418cd231016, type: 3}
    - {fileID: 21300000, guid: 17ed2d85aa7fdd942b0af7aefab60828, type: 3}
    - {fileID: 21300000, guid: 79a123485b08d8d4aaf79fd81ba955f5, type: 3}
    - {fileID: 21300000, guid: f73926f41b533d742af1174b4ec2d0f5, type: 3}
    - {fileID: 21300000, guid: e92359bc55078cb458ca00f2e70b0337, type: 3}
    - {fileID: 21300000, guid: fdfb1c2901eb42d428f618a53397e277, type: 3}
    - {fileID: 21300000, guid: 49e3893078dc7c54ba39ac20c8d84887, type: 3}
    - {fileID: 21300000, guid: b60944793a87e3743b69352f92c01c7e, type: 3}
    - {fileID: 21300000, guid: 9c2fd2208de3a4b45bee442bb7fbc89e, type: 3}
    - {fileID: 21300000, guid: a162bb8b050c16e448fc8eed91666dc9, type: 3}
    - {fileID: 21300000, guid: a969e82d17ebf5e498bc7e0b5b237794, type: 3}
    - {fileID: 21300000, guid: a2e9741ce2a94514fb8eb5b809516684, type: 3}
    - {fileID: 21300000, guid: 0b6853bdca950a14296e62615b2bddc9, type: 3}
    - {fileID: 21300000, guid: 7d39d7af72f85ec4db28c5842e5861cb, type: 3}
    - {fileID: 21300000, guid: a2dc97b22489bf74a965cbcdf48dc22c, type: 3}
    - {fileID: 21300000, guid: 249a6c1372541e349a3cd0cf6b6c21fc, type: 3}
    - {fileID: 21300000, guid: bc92e02f43b4bf04e9d3e72bf1436067, type: 3}
    - {fileID: 21300000, guid: 326ff729a978407479783e3ca173199f, type: 3}
    - {fileID: 21300000, guid: 4f7b27d53c5fe5944b22ba09fafcf2c1, type: 3}
    - {fileID: 21300000, guid: ef815cd57f667d144abe314f32f986c0, type: 3}
    - {fileID: 21300000, guid: 73657380d6acfab49b92e5110ce37b7e, type: 3}
    - {fileID: 21300000, guid: de4ecf22a8905ff40a697c02cbd9757a, type: 3}
    - {fileID: 21300000, guid: d5a978cbb7a17a74a9fda593b98f5ac5, type: 3}
    - {fileID: 21300000, guid: 8de73377b64a2824fa156fbb10a7048b, type: 3}
    - {fileID: 21300000, guid: 90e2aa22dce53c84a8a9d5adb066885c, type: 3}
    - {fileID: 21300000, guid: 33d9b4f797cf6144ea61ec83071dfa65, type: 3}
    - {fileID: 21300000, guid: c82eef27369b94440bdde1ca19f649d0, type: 3}
    - {fileID: 21300000, guid: 30bfda0fa571280428fe5eec12ebaad5, type: 3}
    - {fileID: 21300000, guid: 5dc8c7b57a4f53941a60459ea0813c42, type: 3}
    - {fileID: 21300000, guid: 775a13a90593ad546ad902afa0e09573, type: 3}
    - {fileID: 21300000, guid: 269feedaa1f0c134684bbd1a5b700760, type: 3}
    - {fileID: 21300000, guid: c59bccc1d7c78294392145755387e2be, type: 3}
    - {fileID: 21300000, guid: cb8b107a09f60504981ba7ba8f2ad019, type: 3}
    - {fileID: 21300000, guid: b9880301e2d09484bb2f2668750968e7, type: 3}
    - {fileID: 21300000, guid: 3179f391d580dda40b57dc6d3f797b70, type: 3}
    - {fileID: 21300000, guid: f09a918ac085def48b33c2bc6d7e189d, type: 3}
    - {fileID: 21300000, guid: 6641ae2df974ac34186a10c0d3348448, type: 3}
    - {fileID: 21300000, guid: b2e47b9d0e1562f4aba18ec1162c400a, type: 3}
    - {fileID: 21300000, guid: ccfa5b6c87087ed46bb812132cffb20c, type: 3}
    - {fileID: 21300000, guid: 3ffa07c904301ce44ba29bdc7dcc8e50, type: 3}
    - {fileID: 21300000, guid: e1bdf12b2666c9646abff0af73dd06e9, type: 3}
    - {fileID: 21300000, guid: 16fd569f6792c204eba45bd9e0315753, type: 3}
    - {fileID: 21300000, guid: c08e0dfef9ef64d408961c4403f3da8a, type: 3}
    - {fileID: 21300000, guid: 4d9c7e7fd6c1c4f4b9ef785cda906a7e, type: 3}
    - {fileID: 21300000, guid: 57251bbb444f15a43809b6e6c4d3d053, type: 3}
    - {fileID: 21300000, guid: 3babd5573cef5a84f9e92ca7bff44b9e, type: 3}
    - {fileID: 21300000, guid: 5aaa31b4ef2882247880bfa6a4d26fe0, type: 3}
    - {fileID: 21300000, guid: 44d022400cde2d54896367600a013c18, type: 3}
    - {fileID: 21300000, guid: 4d122a321107fa84787caefa8ea80d7c, type: 3}
    - {fileID: 21300000, guid: 08b2a40558f06464d9efcda16f7ea9a2, type: 3}
    - {fileID: 21300000, guid: a35969632df78694c86ce8771cd23630, type: 3}
    - {fileID: 21300000, guid: 26d1239101fa1824d9162d7eeff3ef9a, type: 3}
    - {fileID: 21300000, guid: d804a907e9fb7ea4bb5aa04af4135a78, type: 3}
    - {fileID: 21300000, guid: 52c2075395ad5e54a9368532752c69a6, type: 3}
    - {fileID: 21300000, guid: 51f7ecfd2259f0a4ebddb35f0ede4bf9, type: 3}
    - {fileID: 21300000, guid: eb4df42a642597c4ab075286c535944e, type: 3}
    - {fileID: 21300000, guid: 4fc1140111ee8614594ca7f7680e05de, type: 3}
    - {fileID: 21300000, guid: d51d6fa28d05bf948b1a62410f4bed8e, type: 3}
    - {fileID: 21300000, guid: d8207c1a52128f845802f776f0c38844, type: 3}
    - {fileID: 21300000, guid: 648b42826f0affd4287f5e524f59c61a, type: 3}
    - {fileID: 21300000, guid: e63b25953f0c975458fc75e19656380e, type: 3}
    - {fileID: 21300000, guid: e597ac040de89de4a8723cb19de7697c, type: 3}
    - {fileID: 21300000, guid: 07e9b9dcc7081fe41956257c2447576c, type: 3}
    - {fileID: 21300000, guid: 7d91d3a745676d2439c41e5260b38434, type: 3}
    - {fileID: 21300000, guid: aed58539032204741bd2bda45a0ad5bb, type: 3}
    - {fileID: 21300000, guid: f3d61f176f1ea0247a530ddc05152ac4, type: 3}
    - {fileID: 21300000, guid: 5959cd5b0d1d67941a88295f25bebe45, type: 3}
    - {fileID: 21300000, guid: a72e0f4916c70f64594e7feb3b60596d, type: 3}
    - {fileID: 21300000, guid: 767f74a5047b6cc4284f6af48fa430f6, type: 3}
    - {fileID: 21300000, guid: e4ed499d858ad9147b08acee6aa1023d, type: 3}
    - {fileID: 21300000, guid: e808f550d18bc0547b9b9e8210fd8ef5, type: 3}
    - {fileID: 21300000, guid: a148eccbbcf9206499bb2b5977f63162, type: 3}
    - {fileID: 21300000, guid: fae0a94b50008d04d905924b4fbf1b45, type: 3}
    - {fileID: 21300000, guid: bfc76f6b17875924e91a982a879ecfdf, type: 3}
    - {fileID: 21300000, guid: 9fe6e1a13e1ab2d4d914430234a39e96, type: 3}
    - {fileID: 21300000, guid: f6d1fc97ad6c79c47bc646247606e87f, type: 3}
    - {fileID: 21300000, guid: 74b002bfa29d97e40b6ed0e1037811d3, type: 3}
    - {fileID: 21300000, guid: 7f0bb4eceb28c224e80fc494bc8d21ec, type: 3}
    - {fileID: 21300000, guid: 8ce448bcb4d80f3439e269f8149eb2e6, type: 3}
    - {fileID: 21300000, guid: 3f210cd822507a345a5d0f6d39eb14dc, type: 3}
    - {fileID: 21300000, guid: 6a4e596a8412a5845a26c6dbdbbe2194, type: 3}
    - {fileID: 21300000, guid: d5e0eca9ee9a24a4f976b3e1d83b7dc6, type: 3}
    - {fileID: 21300000, guid: 7c5f81d9cbec8944cbeeb01709c22aa3, type: 3}
    - {fileID: 21300000, guid: c3bcb3f286dab4f4f95da7b97cc6fc94, type: 3}
    - {fileID: 21300000, guid: dcfcf58ec78142347b88b17a7c2936f2, type: 3}
    - {fileID: 21300000, guid: fb2f05d713c192a4786069bf03c7417d, type: 3}
    - {fileID: 21300000, guid: 161d30de9d3a07e488516d9bda2ac3dd, type: 3}
    - {fileID: 21300000, guid: 9cdd67e857991404b8801043894189fa, type: 3}
    - {fileID: 21300000, guid: cfc673808619786469f3240342e6a3fa, type: 3}
  m_AnimationClipSettings:
    serializedVersion: 2
    m_AdditiveReferencePoseClip: {fileID: 0}
    m_AdditiveReferencePoseTime: 0
    m_StartTime: 0
    m_StopTime: 33.583332
    m_OrientationOffsetY: 0
    m_Level: 0
    m_CycleOffset: 0
    m_HasAdditiveReferencePose: 0
    m_LoopTime: 1
    m_LoopBlend: 0
    m_LoopBlendOrientation: 0
    m_LoopBlendPositionY: 0
    m_LoopBlendPositionXZ: 0
    m_KeepOriginalOrientation: 0
    m_KeepOriginalPositionY: 1
    m_KeepOriginalPositionXZ: 0
    m_HeightFromFeet: 0
    m_Mirror: 0
  m_EditorCurves: []
  m_EulerEditorCurves: []
  m_HasGenericRootTransform: 0
  m_HasMotionFloatCurves: 0
  m_GenerateMotionCurves: 0
  m_Events: []
