%YAML 1.1
%TAG !u! tag:unity3d.com,2011:
--- !u!74 &7400000
AnimationClip:
  m_ObjectHideFlags: 0
  m_CorrespondingSourceObject: {fileID: 0}
  m_PrefabInternal: {fileID: 0}
  m_Name: Warning-sun-mid
  serializedVersion: 6
  m_Legacy: 0
  m_Compressed: 0
  m_UseHighQualityCurve: 1
  m_RotationCurves: []
  m_CompressedRotationCurves: []
  m_EulerCurves: []
  m_PositionCurves: []
  m_ScaleCurves: []
  m_FloatCurves: []
  m_PPtrCurves:
  - curve:
    - time: 0
      value: {fileID: 21300000, guid: 451fcd90dff8c2f4099b61284ed0ae18, type: 3}
    - time: 0.083333336
      value: {fileID: 21300000, guid: 0d7eda8cbf71a614a97506b8ff706e20, type: 3}
    - time: 0.16666667
      value: {fileID: 21300000, guid: 5679059660599e849817941e15f8a91f, type: 3}
    - time: 0.25
      value: {fileID: 21300000, guid: 1468129367a083441a0956f7a3ae328c, type: 3}
    - time: 0.33333334
      value: {fileID: 21300000, guid: 5b535a6677b457347938a058c06796a8, type: 3}
    - time: 0.41666666
      value: {fileID: 21300000, guid: c7c7c065ea9bd074094c4951dbd2c133, type: 3}
    - time: 0.5
      value: {fileID: 21300000, guid: 7b5814c866b497d4c9004b91a9b553c6, type: 3}
    - time: 0.5833333
      value: {fileID: 21300000, guid: f6180b0d6108bbc4b8fa57e3c3439984, type: 3}
    - time: 0.6666667
      value: {fileID: 21300000, guid: 88f9e6389b6058445a4f5cccf6d24545, type: 3}
    - time: 0.75
      value: {fileID: 21300000, guid: 5d24b8ea519c14e47a696cd26887b44a, type: 3}
    - time: 0.8333333
      value: {fileID: 21300000, guid: 5c6735edad0b0ad42a66d0be350bf3e1, type: 3}
    - time: 0.9166667
      value: {fileID: 21300000, guid: 871496ab79ece2444bca3e6eb631d650, type: 3}
    - time: 1
      value: {fileID: 21300000, guid: 0fe72ce0691e11044aa70b1809067b8c, type: 3}
    - time: 1.0833334
      value: {fileID: 21300000, guid: d5eb1889336c49b47898980c3bd9c575, type: 3}
    - time: 1.1666666
      value: {fileID: 21300000, guid: cd8908c90611ed3419e07e0655a08526, type: 3}
    - time: 1.25
      value: {fileID: 21300000, guid: a4d7be2cc95e7ff4fbca261bcfdd57cb, type: 3}
    - time: 1.3333334
      value: {fileID: 21300000, guid: c122df4ee2824bc45accc4c4e44b8f79, type: 3}
    - time: 1.4166666
      value: {fileID: 21300000, guid: dde16e1e213efbd409e4c176a64891b4, type: 3}
    - time: 1.5
      value: {fileID: 21300000, guid: 6382fbbfdd1c7a344ba04a04d8e69459, type: 3}
    - time: 1.5833334
      value: {fileID: 21300000, guid: 1137c121d47052c47af12e8fa9331668, type: 3}
    - time: 1.6666666
      value: {fileID: 21300000, guid: b96b31e0e33c5be49bc56bba3a125c29, type: 3}
    - time: 1.75
      value: {fileID: 21300000, guid: 2a35ff4dc607e534eb2af72d725d9014, type: 3}
    - time: 1.8333334
      value: {fileID: 21300000, guid: 220031fd9c709314aa563ea3d7e98648, type: 3}
    - time: 1.9166666
      value: {fileID: 21300000, guid: 514d2bb6375580247b643552f6806c55, type: 3}
    - time: 2
      value: {fileID: 21300000, guid: 3b1f39716edc9db4288cc3e91e917394, type: 3}
    - time: 2.0833333
      value: {fileID: 21300000, guid: 9b1ff5acf91fcdd47bbadec561881488, type: 3}
    - time: 2.1666667
      value: {fileID: 21300000, guid: 46b678b93301a1c4595401742a16ed64, type: 3}
    - time: 2.25
      value: {fileID: 21300000, guid: 4cc22fed0e676ea418459a014a5ac0e9, type: 3}
    - time: 2.3333333
      value: {fileID: 21300000, guid: 07b826e3dcecef44ba16ebc38a01a3f0, type: 3}
    - time: 2.4166667
      value: {fileID: 21300000, guid: d55067c41602fa746b4df2b69e7c4526, type: 3}
    - time: 2.5
      value: {fileID: 21300000, guid: bc6977b4f289777498f92513c41c563e, type: 3}
    - time: 2.5833333
      value: {fileID: 21300000, guid: 2b91e33dc8d4106469eeefce5b4b554f, type: 3}
    - time: 2.6666667
      value: {fileID: 21300000, guid: aec3762353877ff44819f5e91a399aa4, type: 3}
    - time: 2.75
      value: {fileID: 21300000, guid: 93d8585118957434fb795e0c35d0235e, type: 3}
    - time: 2.8333333
      value: {fileID: 21300000, guid: 4adf7916b6465af429b1105f429e7ee7, type: 3}
    - time: 2.9166667
      value: {fileID: 21300000, guid: 279dd4244da71354b8fcec9355951dbd, type: 3}
    - time: 3
      value: {fileID: 21300000, guid: 8d04044638ecad84da3e779a72f4a66e, type: 3}
    - time: 3.0833333
      value: {fileID: 21300000, guid: cabc84d2120863740887e4db0f182177, type: 3}
    - time: 3.1666667
      value: {fileID: 21300000, guid: cbd3823e168b59c478c528e1de70e8ff, type: 3}
    - time: 3.25
      value: {fileID: 21300000, guid: 36e374306e231b643ada7635830b3de7, type: 3}
    - time: 3.3333333
      value: {fileID: 21300000, guid: 8b967e6c69f77ac4f8c1643675230b5b, type: 3}
    - time: 3.4166667
      value: {fileID: 21300000, guid: 93c2b25251532954a92b4fec758c4f22, type: 3}
    - time: 3.5
      value: {fileID: 21300000, guid: 783044c127cc4d0479d5801249511c3d, type: 3}
    - time: 3.5833333
      value: {fileID: 21300000, guid: 0ecee859aa8e28d4b8c6e3d8038f496f, type: 3}
    - time: 3.6666667
      value: {fileID: 21300000, guid: 7b112b8c1686e02449c8e22b12723fde, type: 3}
    - time: 3.75
      value: {fileID: 21300000, guid: 4617bc694fcbcf047a7a5d2f6948c7f7, type: 3}
    - time: 3.8333333
      value: {fileID: 21300000, guid: 2d6e4ed64465df24bae7165eb99a0cb3, type: 3}
    - time: 3.9166667
      value: {fileID: 21300000, guid: 5af9ca6b2ecd81546816b68da11e585a, type: 3}
    - time: 4
      value: {fileID: 21300000, guid: 30689f016ebe7074185b1bd9751db5a0, type: 3}
    - time: 4.0833335
      value: {fileID: 21300000, guid: cda71913320f5ea42b418b991f1cfdfd, type: 3}
    - time: 4.1666665
      value: {fileID: 21300000, guid: ef7551cac4f9dff4fab5f7c4d71a3181, type: 3}
    - time: 4.25
      value: {fileID: 21300000, guid: 3444a9988bd2596419bb313494d977c5, type: 3}
    - time: 4.3333335
      value: {fileID: 21300000, guid: 2ef000afbe1028b46ac62c16650e9332, type: 3}
    - time: 4.4166665
      value: {fileID: 21300000, guid: 220bc18f8c3767c429331e5bbc923eee, type: 3}
    - time: 4.5
      value: {fileID: 21300000, guid: 17bc67362a968a54e9575cf1d7ddeb01, type: 3}
    - time: 4.5833335
      value: {fileID: 21300000, guid: 17dacb2b076a44240849b7c88cb1c696, type: 3}
    - time: 4.6666665
      value: {fileID: 21300000, guid: 79b15202dd0dd0e449f125adbad13ccc, type: 3}
    - time: 4.75
      value: {fileID: 21300000, guid: b67dad0cf6f8de04a8136ee847b5fb7b, type: 3}
    - time: 4.8333335
      value: {fileID: 21300000, guid: 9d452bc10c295514393b87edf0d477e1, type: 3}
    - time: 4.9166665
      value: {fileID: 21300000, guid: f2ecc332c131cbf49b3932fce6efa979, type: 3}
    - time: 5
      value: {fileID: 21300000, guid: a0cea17bd9e2d144cb21f27a837ca01f, type: 3}
    attribute: m_Sprite
    path: 
    classID: 212
    script: {fileID: 0}
  m_SampleRate: 12
  m_WrapMode: 0
  m_Bounds:
    m_Center: {x: 0, y: 0, z: 0}
    m_Extent: {x: 0, y: 0, z: 0}
  m_ClipBindingConstant:
    genericBindings:
    - serializedVersion: 2
      path: 0
      attribute: 0
      script: {fileID: 0}
      typeID: 212
      customType: 23
      isPPtrCurve: 1
    pptrCurveMapping:
    - {fileID: 21300000, guid: 451fcd90dff8c2f4099b61284ed0ae18, type: 3}
    - {fileID: 21300000, guid: 0d7eda8cbf71a614a97506b8ff706e20, type: 3}
    - {fileID: 21300000, guid: 5679059660599e849817941e15f8a91f, type: 3}
    - {fileID: 21300000, guid: 1468129367a083441a0956f7a3ae328c, type: 3}
    - {fileID: 21300000, guid: 5b535a6677b457347938a058c06796a8, type: 3}
    - {fileID: 21300000, guid: c7c7c065ea9bd074094c4951dbd2c133, type: 3}
    - {fileID: 21300000, guid: 7b5814c866b497d4c9004b91a9b553c6, type: 3}
    - {fileID: 21300000, guid: f6180b0d6108bbc4b8fa57e3c3439984, type: 3}
    - {fileID: 21300000, guid: 88f9e6389b6058445a4f5cccf6d24545, type: 3}
    - {fileID: 21300000, guid: 5d24b8ea519c14e47a696cd26887b44a, type: 3}
    - {fileID: 21300000, guid: 5c6735edad0b0ad42a66d0be350bf3e1, type: 3}
    - {fileID: 21300000, guid: 871496ab79ece2444bca3e6eb631d650, type: 3}
    - {fileID: 21300000, guid: 0fe72ce0691e11044aa70b1809067b8c, type: 3}
    - {fileID: 21300000, guid: d5eb1889336c49b47898980c3bd9c575, type: 3}
    - {fileID: 21300000, guid: cd8908c90611ed3419e07e0655a08526, type: 3}
    - {fileID: 21300000, guid: a4d7be2cc95e7ff4fbca261bcfdd57cb, type: 3}
    - {fileID: 21300000, guid: c122df4ee2824bc45accc4c4e44b8f79, type: 3}
    - {fileID: 21300000, guid: dde16e1e213efbd409e4c176a64891b4, type: 3}
    - {fileID: 21300000, guid: 6382fbbfdd1c7a344ba04a04d8e69459, type: 3}
    - {fileID: 21300000, guid: 1137c121d47052c47af12e8fa9331668, type: 3}
    - {fileID: 21300000, guid: b96b31e0e33c5be49bc56bba3a125c29, type: 3}
    - {fileID: 21300000, guid: 2a35ff4dc607e534eb2af72d725d9014, type: 3}
    - {fileID: 21300000, guid: 220031fd9c709314aa563ea3d7e98648, type: 3}
    - {fileID: 21300000, guid: 514d2bb6375580247b643552f6806c55, type: 3}
    - {fileID: 21300000, guid: 3b1f39716edc9db4288cc3e91e917394, type: 3}
    - {fileID: 21300000, guid: 9b1ff5acf91fcdd47bbadec561881488, type: 3}
    - {fileID: 21300000, guid: 46b678b93301a1c4595401742a16ed64, type: 3}
    - {fileID: 21300000, guid: 4cc22fed0e676ea418459a014a5ac0e9, type: 3}
    - {fileID: 21300000, guid: 07b826e3dcecef44ba16ebc38a01a3f0, type: 3}
    - {fileID: 21300000, guid: d55067c41602fa746b4df2b69e7c4526, type: 3}
    - {fileID: 21300000, guid: bc6977b4f289777498f92513c41c563e, type: 3}
    - {fileID: 21300000, guid: 2b91e33dc8d4106469eeefce5b4b554f, type: 3}
    - {fileID: 21300000, guid: aec3762353877ff44819f5e91a399aa4, type: 3}
    - {fileID: 21300000, guid: 93d8585118957434fb795e0c35d0235e, type: 3}
    - {fileID: 21300000, guid: 4adf7916b6465af429b1105f429e7ee7, type: 3}
    - {fileID: 21300000, guid: 279dd4244da71354b8fcec9355951dbd, type: 3}
    - {fileID: 21300000, guid: 8d04044638ecad84da3e779a72f4a66e, type: 3}
    - {fileID: 21300000, guid: cabc84d2120863740887e4db0f182177, type: 3}
    - {fileID: 21300000, guid: cbd3823e168b59c478c528e1de70e8ff, type: 3}
    - {fileID: 21300000, guid: 36e374306e231b643ada7635830b3de7, type: 3}
    - {fileID: 21300000, guid: 8b967e6c69f77ac4f8c1643675230b5b, type: 3}
    - {fileID: 21300000, guid: 93c2b25251532954a92b4fec758c4f22, type: 3}
    - {fileID: 21300000, guid: 783044c127cc4d0479d5801249511c3d, type: 3}
    - {fileID: 21300000, guid: 0ecee859aa8e28d4b8c6e3d8038f496f, type: 3}
    - {fileID: 21300000, guid: 7b112b8c1686e02449c8e22b12723fde, type: 3}
    - {fileID: 21300000, guid: 4617bc694fcbcf047a7a5d2f6948c7f7, type: 3}
    - {fileID: 21300000, guid: 2d6e4ed64465df24bae7165eb99a0cb3, type: 3}
    - {fileID: 21300000, guid: 5af9ca6b2ecd81546816b68da11e585a, type: 3}
    - {fileID: 21300000, guid: 30689f016ebe7074185b1bd9751db5a0, type: 3}
    - {fileID: 21300000, guid: cda71913320f5ea42b418b991f1cfdfd, type: 3}
    - {fileID: 21300000, guid: ef7551cac4f9dff4fab5f7c4d71a3181, type: 3}
    - {fileID: 21300000, guid: 3444a9988bd2596419bb313494d977c5, type: 3}
    - {fileID: 21300000, guid: 2ef000afbe1028b46ac62c16650e9332, type: 3}
    - {fileID: 21300000, guid: 220bc18f8c3767c429331e5bbc923eee, type: 3}
    - {fileID: 21300000, guid: 17bc67362a968a54e9575cf1d7ddeb01, type: 3}
    - {fileID: 21300000, guid: 17dacb2b076a44240849b7c88cb1c696, type: 3}
    - {fileID: 21300000, guid: 79b15202dd0dd0e449f125adbad13ccc, type: 3}
    - {fileID: 21300000, guid: b67dad0cf6f8de04a8136ee847b5fb7b, type: 3}
    - {fileID: 21300000, guid: 9d452bc10c295514393b87edf0d477e1, type: 3}
    - {fileID: 21300000, guid: f2ecc332c131cbf49b3932fce6efa979, type: 3}
    - {fileID: 21300000, guid: a0cea17bd9e2d144cb21f27a837ca01f, type: 3}
  m_AnimationClipSettings:
    serializedVersion: 2
    m_AdditiveReferencePoseClip: {fileID: 0}
    m_AdditiveReferencePoseTime: 0
    m_StartTime: 0
    m_StopTime: 5.0833335
    m_OrientationOffsetY: 0
    m_Level: 0
    m_CycleOffset: 0
    m_HasAdditiveReferencePose: 0
    m_LoopTime: 1
    m_LoopBlend: 0
    m_LoopBlendOrientation: 0
    m_LoopBlendPositionY: 0
    m_LoopBlendPositionXZ: 0
    m_KeepOriginalOrientation: 0
    m_KeepOriginalPositionY: 1
    m_KeepOriginalPositionXZ: 0
    m_HeightFromFeet: 0
    m_Mirror: 0
  m_EditorCurves: []
  m_EulerEditorCurves: []
  m_HasGenericRootTransform: 0
  m_HasMotionFloatCurves: 0
  m_GenerateMotionCurves: 0
  m_Events: []
